<?xml version="1.0" encoding="UTF-8"?>
<svg xmlns="http://www.w3.org/2000/svg" xmlns:xlink="http://www.w3.org/1999/xlink" width="236.718pt" height="129.998pt" viewBox="0 0 236.718 129.998" version="1.1" style="background-color: white">
<defs>
<g>
<symbol overflow="visible" id="glyph0-0">
<path style="stroke:none;" d=""/>
</symbol>
<symbol overflow="visible" id="glyph0-1">
<path style="stroke:none;" d="M 7.109375 -8.296875 L 6.078125 -8.296875 L 6.078125 -4.671875 L 2.109375 -4.671875 L 2.109375 -8.296875 L 1.078125 -8.296875 L 1.078125 0 L 2.109375 0 L 2.109375 -3.953125 L 6.078125 -3.953125 L 6.078125 0 L 7.109375 0 Z M 7.109375 -8.296875 "/>
</symbol>
<symbol overflow="visible" id="glyph0-2">
<path style="stroke:none;" d="M 6.8125 -1.375 C 6.078125 -0.84375 5.578125 -0.640625 4.546875 -0.640625 C 2.984375 -0.640625 1.8125 -2.25 1.8125 -4.171875 C 1.8125 -5.78125 2.765625 -7.6875 4.59375 -7.6875 C 5.375 -7.6875 5.96875 -7.453125 6.578125 -7.046875 L 6.75 -8.015625 C 5.96875 -8.3125 5.390625 -8.421875 4.5625 -8.421875 C 2.53125 -8.421875 0.78125 -6.640625 0.78125 -4.15625 C 0.78125 -1.546875 2.71875 0.109375 4.453125 0.109375 C 5.65625 0.109375 5.921875 0.03125 6.890625 -0.546875 Z M 6.8125 -1.375 "/>
</symbol>
<symbol overflow="visible" id="glyph1-0">
<path style="stroke:none;" d=""/>
</symbol>
<symbol overflow="visible" id="glyph1-1">
<path style="stroke:none;" d="M 0.859375 -4.59375 C 1.25 -5.375 1.9375 -5.5 2.265625 -5.5 C 2.71875 -5.5 3.171875 -5.25 3.171875 -4.6875 C 3.171875 -4.359375 2.984375 -3.59375 2.015625 -3.5 C 1.84375 -3.484375 1.703125 -3.46875 1.53125 -3.46875 L 1.53125 -2.875 L 2.203125 -2.875 C 3.078125 -2.875 3.359375 -2.171875 3.359375 -1.625 C 3.359375 -0.921875 2.9375 -0.390625 2.25 -0.390625 C 1.515625 -0.390625 0.828125 -0.796875 0.5 -1.28125 C 0.421875 -0.921875 0.421875 -0.890625 0.390625 -0.703125 C 0.828125 -0.171875 1.5 0.203125 2.265625 0.203125 C 3.40625 0.203125 4.21875 -0.6875 4.21875 -1.625 C 4.21875 -2.328125 3.6875 -2.921875 2.953125 -3.171875 C 3.59375 -3.484375 3.96875 -4.078125 3.96875 -4.6875 C 3.96875 -5.46875 3.203125 -6.0625 2.28125 -6.0625 C 1.53125 -6.0625 0.890625 -5.671875 0.515625 -5.109375 Z M 0.859375 -4.59375 "/>
</symbol>
<symbol overflow="visible" id="glyph1-2">
<path style="stroke:none;" d="M 2.453125 -0.671875 C 2.34375 -0.671875 2.25 -0.65625 2.140625 -0.65625 L 1.140625 -0.65625 C 1.421875 -0.921875 2.34375 -1.765625 2.625 -2 C 3.5625 -2.765625 4.140625 -3.25 4.140625 -4.125 C 4.140625 -5.15625 3.40625 -6.0625 2.171875 -6.0625 C 1.234375 -6.0625 0.65625 -5.515625 0.390625 -4.625 L 0.796875 -4.109375 C 1.03125 -5.15625 1.5 -5.453125 2.046875 -5.453125 C 2.859375 -5.453125 3.359375 -4.84375 3.359375 -4.109375 C 3.359375 -3.296875 2.78125 -2.765625 2.109375 -2.171875 L 0.453125 -0.609375 L 0.453125 0 L 4.140625 0 L 4.140625 -0.671875 Z M 2.453125 -0.671875 "/>
</symbol>
<symbol overflow="visible" id="glyph2-0">
<path style="stroke:none;" d=""/>
</symbol>
<symbol overflow="visible" id="glyph2-1">
<path style="stroke:none;" d="M 1.46875 0.125 C 1.890625 0.125 2.140625 -0.171875 2.15625 -0.5625 C 2.15625 -0.96875 1.890625 -1.28125 1.46875 -1.28125 C 1.046875 -1.28125 0.765625 -0.96875 0.765625 -0.5625 C 0.765625 -0.171875 1.046875 0.125 1.46875 0.125 Z M 1.46875 0.125 "/>
</symbol>
<symbol overflow="visible" id="glyph2-2">
<path style="stroke:none;" d="M 0.8125 -3.140625 L 0.8125 -2.375 L 3.515625 -2.375 L 3.515625 -3.140625 Z M 0.8125 -3.140625 "/>
</symbol>
<symbol overflow="visible" id="glyph2-3">
<path style="stroke:none;" d="M 5.6875 -3.765625 C 5.6875 -4.890625 5.078125 -5.515625 4.0625 -5.515625 C 3.25 -5.515625 2.765625 -5.140625 2.0625 -4.6875 L 2.0625 -8.09375 L 1.984375 -8.15625 L 0.28125 -7.890625 L 0.28125 -7.609375 L 0.6875 -7.5625 C 0.984375 -7.515625 1.046875 -7.453125 1.046875 -7.0625 L 1.046875 -0.953125 C 1.0625 -0.421875 1 -0.375 0.234375 -0.3125 L 0.234375 0 L 2.90625 0 L 2.90625 -0.3125 C 2.140625 -0.375 2.078125 -0.421875 2.078125 -0.953125 L 2.078125 -3.53125 C 2.078125 -3.8125 2.09375 -3.953125 2.171875 -4.125 C 2.40625 -4.5625 2.921875 -4.921875 3.5 -4.921875 C 4.25 -4.921875 4.65625 -4.515625 4.65625 -3.546875 L 4.65625 -0.953125 C 4.65625 -0.421875 4.59375 -0.375 3.828125 -0.3125 L 3.828125 0 L 6.515625 0 L 6.515625 -0.3125 C 5.75 -0.375 5.6875 -0.421875 5.6875 -0.953125 Z M 5.6875 -3.765625 "/>
</symbol>
<symbol overflow="visible" id="glyph2-4">
<path style="stroke:none;" d="M 4.84375 -2.890625 C 5.078125 -2.890625 5.296875 -2.953125 5.296875 -3.3125 C 5.296875 -3.953125 5.078125 -5.515625 3.0625 -5.515625 C 1.359375 -5.515625 0.53125 -4.296875 0.53125 -2.65625 C 0.53125 -0.90625 1.28125 0.15625 3.078125 0.125 C 4.296875 0.125 4.921875 -0.546875 5.21875 -1.421875 L 4.890625 -1.59375 C 4.59375 -0.953125 4.171875 -0.421875 3.296875 -0.421875 C 1.9375 -0.421875 1.65625 -1.75 1.6875 -2.890625 Z M 1.6875 -3.3125 C 1.6875 -3.765625 1.859375 -5.140625 3 -5.140625 C 4.03125 -5.140625 4.140625 -4.09375 4.140625 -3.65625 C 4.140625 -3.453125 4.078125 -3.3125 3.765625 -3.3125 Z M 1.6875 -3.3125 "/>
</symbol>
<symbol overflow="visible" id="glyph2-5">
<path style="stroke:none;" d="M 2.125 0 L 2.125 -0.3125 L 1.65625 -0.375 C 1.5 -0.390625 1.515625 -0.515625 1.578125 -0.640625 C 1.828125 -1.109375 2.171875 -1.640625 2.546875 -2.21875 L 2.578125 -2.21875 L 3.546875 -0.6875 C 3.671875 -0.5 3.640625 -0.390625 3.46875 -0.375 L 3.015625 -0.3125 L 3.015625 0 L 5.59375 0 L 5.59375 -0.3125 C 5.109375 -0.34375 4.921875 -0.375 4.640625 -0.765625 C 4.140625 -1.5 3.625 -2.265625 3.140625 -3.03125 C 3.5 -3.59375 3.921875 -4.140625 4.359375 -4.65625 C 4.640625 -5 4.78125 -5.046875 5.3125 -5.078125 L 5.3125 -5.390625 L 3.265625 -5.390625 L 3.265625 -5.078125 L 3.703125 -5.03125 C 3.875 -5 3.84375 -4.890625 3.765625 -4.78125 C 3.515625 -4.359375 3.21875 -3.890625 2.890625 -3.390625 L 2.875 -3.390625 L 1.953125 -4.765625 C 1.875 -4.890625 1.890625 -5.015625 2.0625 -5.03125 L 2.390625 -5.078125 L 2.390625 -5.390625 L 0.09375 -5.390625 L 0.09375 -5.078125 C 0.53125 -5.046875 0.640625 -5.03125 0.90625 -4.65625 C 1.359375 -4.03125 1.84375 -3.3125 2.3125 -2.609375 C 1.90625 -2.015625 1.46875 -1.390625 1.015625 -0.796875 C 0.734375 -0.40625 0.5 -0.359375 0.015625 -0.3125 L 0.015625 0 Z M 2.125 0 "/>
</symbol>
<symbol overflow="visible" id="glyph2-6">
<path style="stroke:none;" d="M 3.765625 -1.578125 C 3.765625 -0.6875 3.09375 -0.453125 2.65625 -0.453125 C 1.984375 -0.453125 1.65625 -0.9375 1.65625 -1.578125 C 1.65625 -2.09375 1.890625 -2.359375 2.515625 -2.59375 C 2.953125 -2.765625 3.53125 -2.96875 3.765625 -3.125 Z M 4.765625 -4.0625 C 4.765625 -4.703125 4.625 -5.515625 2.953125 -5.515625 C 1.71875 -5.515625 0.734375 -4.875 0.734375 -4.265625 C 0.734375 -3.921875 1.140625 -3.75 1.359375 -3.75 C 1.578125 -3.75 1.65625 -3.875 1.703125 -4.0625 C 1.953125 -4.875 2.390625 -5.140625 2.84375 -5.140625 C 3.265625 -5.140625 3.765625 -4.921875 3.765625 -4.03125 L 3.765625 -3.578125 C 3.5 -3.28125 2.4375 -3.015625 1.5625 -2.734375 C 0.765625 -2.5 0.53125 -1.953125 0.53125 -1.4375 C 0.53125 -0.609375 1.09375 0.125 2.125 0.125 C 2.8125 0.109375 3.40625 -0.296875 3.765625 -0.53125 C 3.921875 -0.125 4.09375 0.125 4.484375 0.125 C 4.890625 0.125 5.359375 0.015625 5.78125 -0.203125 L 5.703125 -0.46875 C 5.5625 -0.421875 5.3125 -0.40625 5.140625 -0.453125 C 4.953125 -0.5 4.765625 -0.703125 4.765625 -1.390625 Z M 4.765625 -4.0625 "/>
</symbol>
<symbol overflow="visible" id="glyph2-7">
<path style="stroke:none;" d="M 5.8125 -3.765625 C 5.8125 -4.890625 5.21875 -5.515625 4.203125 -5.515625 C 3.390625 -5.515625 2.875 -5.125 2.203125 -4.6875 L 2.046875 -5.515625 L 0.40625 -5.25 L 0.40625 -4.96875 L 0.828125 -4.921875 C 1.109375 -4.875 1.171875 -4.8125 1.171875 -4.421875 L 1.171875 -0.953125 C 1.171875 -0.390625 1.140625 -0.375 0.359375 -0.3125 L 0.359375 0 L 3.03125 0 L 3.03125 -0.3125 C 2.25 -0.375 2.21875 -0.390625 2.21875 -0.953125 L 2.21875 -3.53125 C 2.21875 -3.8125 2.234375 -3.953125 2.328125 -4.140625 C 2.546875 -4.5625 3.046875 -4.921875 3.625 -4.921875 C 4.375 -4.921875 4.78125 -4.515625 4.78125 -3.546875 L 4.78125 -0.953125 C 4.78125 -0.390625 4.75 -0.375 3.953125 -0.3125 L 3.953125 0 L 6.640625 0 L 6.640625 -0.3125 C 5.859375 -0.375 5.8125 -0.390625 5.8125 -0.953125 Z M 5.8125 -3.765625 "/>
</symbol>
</g>
</defs>
<g id="surface1">
<g style="fill:rgb(0%,0%,0%);fill-opacity:1;">
  <use xlink:href="#glyph0-1" x="7.456" y="44.052"/>
</g>
<g style="fill:rgb(0%,0%,0%);fill-opacity:1;">
  <use xlink:href="#glyph1-1" x="15.661" y="45.845"/>
</g>
<g style="fill:rgb(0%,0%,100%);fill-opacity:1;">
  <use xlink:href="#glyph0-2" x="20.767" y="44.052"/>
</g>
<g style="fill:rgb(0%,0%,100%);fill-opacity:1;">
  <use xlink:href="#glyph0-2" x="45.673" y="44.029"/>
</g>
<g style="fill:rgb(0%,0%,0%);fill-opacity:1;">
  <use xlink:href="#glyph0-1" x="53.152" y="44.029"/>
</g>
<path style="fill:none;stroke-width:0.3985;stroke-linecap:butt;stroke-linejoin:miter;stroke:rgb(0%,0%,0%);stroke-opacity:1;stroke-miterlimit:10;" d="M 12.387281 3.255125 L 25.828687 3.255125 " transform="matrix(1,0,0,-1,17.851,44.052)"/>
<g style="fill:rgb(0%,0%,0%);fill-opacity:1;">
  <use xlink:href="#glyph0-2" x="45.673" y="13.306"/>
</g>
<g style="fill:rgb(0%,0%,0%);fill-opacity:1;">
  <use xlink:href="#glyph0-1" x="53.152" y="13.306"/>
</g>
<g style="fill:rgb(0%,0%,0%);fill-opacity:1;">
  <use xlink:href="#glyph1-1" x="61.357" y="15.099"/>
</g>
<path style="fill:none;stroke-width:0.3985;stroke-linecap:butt;stroke-linejoin:miter;stroke:rgb(0%,0%,0%);stroke-opacity:1;stroke-miterlimit:10;" d="M 31.563062 10.317625 L 31.563062 28.591063 " transform="matrix(1,0,0,-1,17.851,44.052)"/>
<g style="fill:rgb(0%,0%,100%);fill-opacity:1;">
  <use xlink:href="#glyph0-2" x="85.077" y="44.029"/>
</g>
<g style="fill:rgb(0%,0%,0%);fill-opacity:1;">
  <use xlink:href="#glyph0-1" x="92.556" y="44.029"/>
</g>
<g style="fill:rgb(0%,0%,0%);fill-opacity:1;">
  <use xlink:href="#glyph1-2" x="100.761" y="45.823"/>
</g>
<path style="fill:none;stroke-width:0.3985;stroke-linecap:butt;stroke-linejoin:miter;stroke:rgb(0%,0%,0%);stroke-opacity:1;stroke-miterlimit:10;" d="M 45.500563 4.173094 L 65.234938 4.173094 " transform="matrix(1,0,0,-1,17.851,44.052)"/>
<g style="fill:rgb(0%,0%,0%);fill-opacity:1;">
  <use xlink:href="#glyph0-2" x="85.077" y="75.51"/>
</g>
<g style="fill:rgb(0%,0%,0%);fill-opacity:1;">
  <use xlink:href="#glyph0-1" x="92.556" y="75.51"/>
</g>
<g style="fill:rgb(0%,0%,0%);fill-opacity:1;">
  <use xlink:href="#glyph1-2" x="100.761" y="77.304"/>
</g>
<path style="fill:none;stroke-width:0.3985;stroke-linecap:butt;stroke-linejoin:miter;stroke:rgb(0%,0%,0%);stroke-opacity:1;stroke-miterlimit:10;" d="M 70.965406 -1.971437 L 70.965406 -21.162844 " transform="matrix(1,0,0,-1,17.851,44.052)"/>
<g style="fill:rgb(0%,0%,0%);fill-opacity:1;">
  <use xlink:href="#glyph0-2" x="85.077" y="107.072"/>
</g>
<g style="fill:rgb(0%,0%,0%);fill-opacity:1;">
  <use xlink:href="#glyph0-1" x="92.556" y="107.072"/>
</g>
<g style="fill:rgb(0%,0%,0%);fill-opacity:1;">
  <use xlink:href="#glyph1-1" x="100.761" y="108.865"/>
</g>
<path style="fill:none;stroke-width:0.3985;stroke-linecap:butt;stroke-linejoin:miter;stroke:rgb(0%,0%,0%);stroke-opacity:1;stroke-miterlimit:10;" d="M 70.965406 -33.612062 L 70.965406 -52.725344 " transform="matrix(1,0,0,-1,17.851,44.052)"/>
<g style="fill:rgb(0%,0%,100%);fill-opacity:1;">
  <use xlink:href="#glyph0-2" x="127.033" y="44.029"/>
</g>
<g style="fill:rgb(0%,0%,0%);fill-opacity:1;">
  <use xlink:href="#glyph0-1" x="134.512" y="44.029"/>
</g>
<g style="fill:rgb(0%,0%,0%);fill-opacity:1;">
  <use xlink:href="#glyph1-2" x="142.718" y="45.823"/>
</g>
<path style="fill:none;stroke-width:0.3985;stroke-linecap:butt;stroke-linejoin:miter;stroke:rgb(0%,0%,0%);stroke-opacity:1;stroke-miterlimit:10;" d="M 90.008375 3.278563 L 107.191969 3.278563 " transform="matrix(1,0,0,-1,17.851,44.052)"/>
<g style="fill:rgb(0%,0%,100%);fill-opacity:1;">
  <use xlink:href="#glyph0-2" x="168.99" y="44.029"/>
</g>
<g style="fill:rgb(0%,0%,0%);fill-opacity:1;">
  <use xlink:href="#glyph0-1" x="176.469" y="44.029"/>
</g>
<g style="fill:rgb(0%,0%,0%);fill-opacity:1;">
  <use xlink:href="#glyph1-2" x="184.674" y="45.823"/>
</g>
<path style="fill:none;stroke-width:0.3985;stroke-linecap:butt;stroke-linejoin:miter;stroke:rgb(0%,0%,0%);stroke-opacity:1;stroke-miterlimit:10;" d="M 131.965406 3.278563 L 149.149 3.278563 " transform="matrix(1,0,0,-1,17.851,44.052)"/>
<g style="fill:rgb(0%,0%,0%);fill-opacity:1;">
  <use xlink:href="#glyph0-2" x="168.99" y="13.284"/>
</g>
<g style="fill:rgb(0%,0%,0%);fill-opacity:1;">
  <use xlink:href="#glyph0-1" x="176.469" y="13.284"/>
</g>
<g style="fill:rgb(0%,0%,0%);fill-opacity:1;">
  <use xlink:href="#glyph1-1" x="184.674" y="15.077"/>
</g>
<path style="fill:none;stroke-width:0.3985;stroke-linecap:butt;stroke-linejoin:miter;stroke:rgb(0%,0%,0%);stroke-opacity:1;stroke-miterlimit:10;" d="M 154.879469 10.317625 L 154.879469 28.6145 " transform="matrix(1,0,0,-1,17.851,44.052)"/>
<g style="fill:rgb(0%,0%,100%);fill-opacity:1;">
  <use xlink:href="#glyph0-2" x="210.947" y="44.029"/>
</g>
<g style="fill:rgb(0%,0%,0%);fill-opacity:1;">
  <use xlink:href="#glyph0-1" x="218.425" y="44.029"/>
</g>
<g style="fill:rgb(0%,0%,0%);fill-opacity:1;">
  <use xlink:href="#glyph1-1" x="226.631" y="45.823"/>
</g>
<path style="fill:none;stroke-width:0.3985;stroke-linecap:butt;stroke-linejoin:miter;stroke:rgb(0%,0%,0%);stroke-opacity:1;stroke-miterlimit:10;" d="M 173.922438 3.278563 L 191.106031 3.278563 " transform="matrix(1,0,0,-1,17.851,44.052)"/>
<g style="fill:rgb(0%,0%,0%);fill-opacity:1;">
  <use xlink:href="#glyph2-1" x="93.642" y="124.957"/>
</g>
<g style="fill:rgb(0%,0%,0%);fill-opacity:1;">
  <use xlink:href="#glyph2-1" x="98.04148" y="124.957"/>
</g>
<g style="fill:rgb(0%,0%,0%);fill-opacity:1;">
  <use xlink:href="#glyph2-1" x="102.44096" y="124.957"/>
  <use xlink:href="#glyph2-2" x="105.355615" y="124.957"/>
</g>
<g style="fill:rgb(0%,0%,100%);fill-opacity:1;">
  <use xlink:href="#glyph2-3" x="109.678105" y="124.957"/>
</g>
<g style="fill:rgb(0%,0%,100%);fill-opacity:1;">
  <use xlink:href="#glyph2-4" x="116.343317" y="124.957"/>
  <use xlink:href="#glyph2-5" x="121.996649" y="124.957"/>
</g>
<g style="fill:rgb(0%,0%,0%);fill-opacity:1;">
  <use xlink:href="#glyph2-6" x="127.342017" y="124.957"/>
  <use xlink:href="#glyph2-7" x="133.094337" y="124.957"/>
</g>
<g style="fill:rgb(0%,0%,0%);fill-opacity:1;">
  <use xlink:href="#glyph2-4" x="139.891533" y="124.957"/>
</g>
</g>
</svg>
