<?xml version="1.0" encoding="UTF-8"?>
<svg xmlns="http://www.w3.org/2000/svg" xmlns:xlink="http://www.w3.org/1999/xlink" width="433.152pt" height="185.703pt" viewBox="0 0 433.152 185.703" version="1.1" style="background-color: white">
<defs>
<g>
<symbol overflow="visible" id="glyph0-0">
<path style="stroke:none;" d=""/>
</symbol>
<symbol overflow="visible" id="glyph0-1">
<path style="stroke:none;" d="M 0.578125 -1.515625 L 0.453125 -1.140625 L 1.296875 -1.578125 C 1.328125 -0.609375 1.71875 0.125 2.515625 0.125 C 2.9375 0.125 3.328125 -0.015625 3.5625 -0.171875 C 3.734375 -0.28125 4.109375 -0.71875 4.140625 -0.84375 L 4.0625 -1.046875 C 3.28125 -0.359375 2.921875 -0.328125 2.609375 -0.328125 C 2.265625 -0.328125 2.078125 -0.546875 2.078125 -1 C 2.078125 -1.203125 2.28125 -2.15625 2.28125 -2.171875 C 2.296875 -2.203125 2.328125 -2.21875 2.5625 -2.4375 C 3.625 -3.390625 5.8125 -5.53125 5.8125 -7.40625 C 5.8125 -7.8125 5.671875 -8.171875 5.140625 -8.171875 C 3.140625 -8.171875 1.5625 -4.296875 1.3125 -2.046875 Z M 2.4375 -2.75 C 2.75 -3.671875 3.21875 -5.296875 3.9375 -6.5 C 4.296875 -7.09375 4.765625 -7.703125 5.109375 -7.703125 C 5.296875 -7.703125 5.359375 -7.5 5.359375 -7.25 C 5.359375 -5.484375 3.3125 -3.5625 2.578125 -2.875 C 2.53125 -2.828125 2.46875 -2.78125 2.4375 -2.75 Z M 2.4375 -2.75 "/>
</symbol>
<symbol overflow="visible" id="glyph1-0">
<path style="stroke:none;" d=""/>
</symbol>
<symbol overflow="visible" id="glyph1-1">
<path style="stroke:none;" d="M 3.609375 0 L 3.609375 -0.234375 L 2.90625 -0.296875 C 2.734375 -0.3125 2.640625 -0.375 2.640625 -0.703125 L 2.640625 -5.5625 L 2.59375 -5.609375 L 0.90625 -5.328125 L 0.90625 -5.109375 L 1.671875 -5.03125 C 1.8125 -5 1.859375 -4.9375 1.859375 -4.703125 L 1.859375 -0.703125 C 1.859375 -0.546875 1.84375 -0.453125 1.796875 -0.390625 C 1.75 -0.328125 1.6875 -0.3125 1.59375 -0.296875 L 0.90625 -0.234375 L 0.90625 0 Z M 3.609375 0 "/>
</symbol>
<symbol overflow="visible" id="glyph1-2">
<path style="stroke:none;" d="M 4 -1.09375 L 3.765625 -1.125 C 3.59375 -0.6875 3.4375 -0.625 3.109375 -0.625 L 0.984375 -0.625 C 1.125 -1.0625 1.609375 -1.640625 2.375 -2.1875 C 3.171875 -2.765625 3.78125 -3.140625 3.78125 -4.0625 C 3.78125 -5.21875 3.015625 -5.609375 2.15625 -5.609375 C 1.015625 -5.609375 0.4375 -4.921875 0.4375 -4.5 C 0.4375 -4.21875 0.75 -4.078125 0.890625 -4.078125 C 1.046875 -4.078125 1.09375 -4.171875 1.125 -4.3125 C 1.265625 -4.875 1.578125 -5.328125 2.09375 -5.328125 C 2.734375 -5.328125 2.90625 -4.78125 2.90625 -4.1875 C 2.90625 -3.296875 2.46875 -2.8125 1.75 -2.171875 C 0.734375 -1.28125 0.375 -0.71875 0.21875 -0.078125 L 0.3125 0 L 3.71875 0 Z M 4 -1.09375 "/>
</symbol>
<symbol overflow="visible" id="glyph1-3">
<path style="stroke:none;" d="M 1.078125 -3.015625 C 1.078125 -2.875 1.109375 -2.78125 1.21875 -2.78125 C 1.3125 -2.78125 1.546875 -2.875 1.9375 -2.875 C 2.640625 -2.875 3.03125 -2.234375 3.03125 -1.515625 C 3.03125 -0.53125 2.546875 -0.1875 1.96875 -0.1875 C 1.421875 -0.1875 1.0625 -0.609375 0.90625 -1.0625 C 0.859375 -1.21875 0.78125 -1.296875 0.65625 -1.296875 C 0.515625 -1.296875 0.21875 -1.140625 0.21875 -0.84375 C 0.21875 -0.484375 0.796875 0.09375 1.953125 0.09375 C 3.15625 0.09375 3.90625 -0.5 3.90625 -1.5625 C 3.90625 -2.671875 2.953125 -3 2.5 -3.03125 L 2.5 -3.0625 C 2.9375 -3.140625 3.65625 -3.46875 3.65625 -4.296875 C 3.65625 -5.203125 2.9375 -5.609375 2.0625 -5.609375 C 0.96875 -5.609375 0.4375 -4.984375 0.4375 -4.625 C 0.4375 -4.375 0.71875 -4.234375 0.84375 -4.234375 C 0.953125 -4.234375 1.015625 -4.296875 1.046875 -4.390625 C 1.234375 -4.953125 1.546875 -5.328125 2 -5.328125 C 2.65625 -5.328125 2.8125 -4.75 2.8125 -4.28125 C 2.8125 -3.78125 2.640625 -3.171875 1.9375 -3.171875 C 1.546875 -3.171875 1.3125 -3.25 1.21875 -3.25 C 1.109375 -3.25 1.078125 -3.171875 1.078125 -3.015625 Z M 1.078125 -3.015625 "/>
</symbol>
<symbol overflow="visible" id="glyph1-4">
<path style="stroke:none;" d="M 2.46875 -1.484375 L 2.46875 -0.640625 C 2.46875 -0.359375 2.390625 -0.3125 2.1875 -0.28125 L 1.65625 -0.234375 L 1.65625 0 L 3.84375 0 L 3.84375 -0.234375 L 3.46875 -0.28125 C 3.28125 -0.3125 3.21875 -0.359375 3.21875 -0.640625 L 3.21875 -1.484375 L 4.0625 -1.484375 L 4.0625 -1.859375 L 3.21875 -1.859375 L 3.21875 -5.515625 L 2.609375 -5.515625 C 1.84375 -4.375 0.921875 -2.9375 0.15625 -1.65625 L 0.234375 -1.484375 Z M 0.75 -1.859375 C 1.25 -2.765625 1.828125 -3.71875 2.453125 -4.703125 L 2.46875 -4.703125 L 2.46875 -1.859375 Z M 0.75 -1.859375 "/>
</symbol>
<symbol overflow="visible" id="glyph1-5">
<path style="stroke:none;" d="M 3.515625 -4.890625 L 3.71875 -5.4375 L 3.671875 -5.515625 L 0.921875 -5.515625 L 0.828125 -5.4375 L 0.671875 -2.671875 L 0.859375 -2.578125 C 1.21875 -2.96875 1.546875 -3.15625 2 -3.15625 C 2.53125 -3.15625 3.109375 -2.765625 3.109375 -1.6875 C 3.109375 -0.828125 2.75 -0.1875 2.03125 -0.1875 C 1.453125 -0.1875 1.15625 -0.609375 1 -1.078125 C 0.953125 -1.203125 0.875 -1.28125 0.765625 -1.28125 C 0.609375 -1.28125 0.328125 -1.109375 0.328125 -0.84375 C 0.328125 -0.46875 0.90625 0.09375 1.984375 0.09375 C 3.34375 0.09375 3.953125 -0.71875 3.953125 -1.78125 C 3.953125 -2.921875 3.234375 -3.515625 2.25 -3.515625 C 1.796875 -3.515625 1.3125 -3.328125 1.046875 -3.078125 L 1.03125 -3.109375 L 1.21875 -4.640625 C 1.25 -4.84375 1.296875 -4.890625 1.453125 -4.890625 Z M 3.515625 -4.890625 "/>
</symbol>
<symbol overflow="visible" id="glyph1-6">
<path style="stroke:none;" d="M 0.3125 -3.9375 L 0.3125 -3.734375 L 0.625 -3.6875 C 0.828125 -3.65625 0.875 -3.609375 0.875 -3.3125 L 0.875 -0.71875 C 0.875 -0.296875 0.859375 -0.28125 0.265625 -0.234375 L 0.265625 0 L 2.28125 0 L 2.28125 -0.234375 C 1.6875 -0.28125 1.65625 -0.296875 1.65625 -0.71875 L 1.65625 -2.640625 C 1.65625 -2.859375 1.671875 -2.96875 1.71875 -3.078125 C 1.875 -3.421875 2.25 -3.703125 2.703125 -3.703125 C 3.40625 -3.703125 3.484375 -3.171875 3.484375 -2.671875 L 3.484375 -0.71875 C 3.484375 -0.296875 3.46875 -0.28125 2.875 -0.234375 L 2.875 0 L 4.890625 0 L 4.890625 -0.234375 C 4.296875 -0.28125 4.265625 -0.296875 4.265625 -0.71875 L 4.265625 -2.640625 C 4.265625 -2.859375 4.28125 -2.96875 4.328125 -3.109375 C 4.453125 -3.4375 4.796875 -3.703125 5.265625 -3.703125 C 5.78125 -3.71875 6.09375 -3.375 6.09375 -2.671875 L 6.09375 -0.71875 C 6.09375 -0.296875 6.078125 -0.28125 5.484375 -0.234375 L 5.484375 0 L 7.484375 0 L 7.484375 -0.234375 C 6.90625 -0.28125 6.875 -0.296875 6.875 -0.71875 L 6.875 -2.828125 C 6.875 -3.65625 6.421875 -4.140625 5.640625 -4.140625 C 4.96875 -4.140625 4.484375 -3.6875 4.1875 -3.5 C 4 -3.890625 3.671875 -4.140625 3.109375 -4.140625 C 2.46875 -4.140625 1.953125 -3.734375 1.65625 -3.515625 L 1.578125 -4.140625 Z M 0.3125 -3.9375 "/>
</symbol>
<symbol overflow="visible" id="glyph1-7">
<path style="stroke:none;" d="M 2.828125 -1.1875 C 2.828125 -0.515625 2.3125 -0.34375 2 -0.34375 C 1.484375 -0.34375 1.234375 -0.703125 1.234375 -1.1875 C 1.234375 -1.578125 1.421875 -1.78125 1.875 -1.953125 C 2.21875 -2.078125 2.640625 -2.234375 2.828125 -2.34375 Z M 3.578125 -3.046875 C 3.578125 -3.515625 3.46875 -4.140625 2.21875 -4.140625 C 1.28125 -4.140625 0.546875 -3.65625 0.546875 -3.203125 C 0.546875 -2.9375 0.859375 -2.8125 1.015625 -2.8125 C 1.1875 -2.8125 1.234375 -2.90625 1.28125 -3.046875 C 1.453125 -3.65625 1.796875 -3.859375 2.125 -3.859375 C 2.453125 -3.859375 2.828125 -3.6875 2.828125 -3.03125 L 2.828125 -2.6875 C 2.625 -2.46875 1.828125 -2.265625 1.171875 -2.046875 C 0.578125 -1.875 0.40625 -1.453125 0.40625 -1.078125 C 0.40625 -0.453125 0.8125 0.09375 1.59375 0.09375 C 2.109375 0.078125 2.5625 -0.21875 2.828125 -0.390625 C 2.9375 -0.09375 3.0625 0.09375 3.359375 0.09375 C 3.65625 0.09375 4.015625 0.015625 4.328125 -0.15625 L 4.28125 -0.34375 C 4.171875 -0.328125 3.984375 -0.3125 3.859375 -0.34375 C 3.71875 -0.375 3.578125 -0.53125 3.578125 -1.046875 Z M 3.578125 -3.046875 "/>
</symbol>
<symbol overflow="visible" id="glyph1-8">
<path style="stroke:none;" d="M 1.59375 0 L 1.59375 -0.234375 L 1.25 -0.28125 C 1.125 -0.296875 1.140625 -0.390625 1.1875 -0.484375 C 1.375 -0.828125 1.640625 -1.234375 1.90625 -1.65625 L 1.9375 -1.65625 L 2.671875 -0.515625 C 2.75 -0.375 2.734375 -0.296875 2.609375 -0.28125 L 2.265625 -0.234375 L 2.265625 0 L 4.203125 0 L 4.203125 -0.234375 C 3.828125 -0.25 3.6875 -0.28125 3.484375 -0.578125 C 3.109375 -1.125 2.71875 -1.703125 2.34375 -2.28125 C 2.625 -2.6875 2.9375 -3.109375 3.265625 -3.484375 C 3.484375 -3.75 3.59375 -3.78125 3.984375 -3.796875 L 3.984375 -4.046875 L 2.453125 -4.046875 L 2.453125 -3.796875 L 2.765625 -3.765625 C 2.90625 -3.75 2.890625 -3.671875 2.828125 -3.578125 C 2.640625 -3.265625 2.421875 -2.921875 2.171875 -2.546875 L 2.15625 -2.546875 L 1.46875 -3.578125 C 1.40625 -3.671875 1.421875 -3.765625 1.546875 -3.78125 L 1.796875 -3.796875 L 1.796875 -4.046875 L 0.0625 -4.046875 L 0.0625 -3.796875 C 0.390625 -3.78125 0.484375 -3.765625 0.671875 -3.5 C 1.015625 -3.015625 1.375 -2.484375 1.734375 -1.953125 C 1.421875 -1.515625 1.109375 -1.046875 0.765625 -0.59375 C 0.546875 -0.3125 0.375 -0.265625 0.015625 -0.234375 L 0.015625 0 Z M 1.59375 0 "/>
</symbol>
<symbol overflow="visible" id="glyph2-0">
<path style="stroke:none;" d=""/>
</symbol>
<symbol overflow="visible" id="glyph2-1">
<path style="stroke:none;" d="M 0.390625 -7.609375 L 0.390625 -7.296875 C 1.359375 -7.234375 1.375 -7.203125 1.375 -6.59375 L 1.375 -1.015625 C 1.375 -0.40625 1.359375 -0.390625 0.390625 -0.3125 L 0.390625 0 L 6.21875 0 L 6.34375 -1.90625 L 6.015625 -1.90625 C 5.765625 -0.5625 5.265625 -0.390625 3.890625 -0.390625 C 3.359375 -0.390625 2.96875 -0.40625 2.734375 -0.5 C 2.515625 -0.59375 2.46875 -0.78125 2.46875 -1.3125 L 2.46875 -3.75 L 4 -3.75 C 4.9375 -3.75 4.984375 -3.484375 5.078125 -2.796875 L 5.40625 -2.796875 L 5.40625 -5.109375 L 5.078125 -5.109375 C 4.984375 -4.4375 4.9375 -4.171875 4 -4.171875 L 2.46875 -4.171875 L 2.46875 -6.828125 C 2.46875 -7.1875 2.515625 -7.234375 2.875 -7.234375 L 3.953125 -7.234375 C 5.203125 -7.234375 5.453125 -6.953125 5.609375 -5.8125 L 5.9375 -5.8125 L 5.9375 -7.609375 Z M 2.671875 -8.15625 L 4.546875 -8.78125 C 5.03125 -8.9375 5.1875 -9.015625 5.21875 -9.21875 C 5.234375 -9.4375 5.03125 -9.75 4.859375 -9.796875 C 4.6875 -9.828125 4.53125 -9.75 4.140625 -9.5 L 2.546875 -8.40625 Z M 2.671875 -8.15625 "/>
</symbol>
<symbol overflow="visible" id="glyph2-2">
<path style="stroke:none;" d="M 5.59375 -5.515625 L 5.296875 -5.515625 L 4.8125 -5.1875 C 4.40625 -5.40625 3.84375 -5.515625 3.359375 -5.515625 C 2.484375 -5.515625 1.796875 -5.265625 1.3125 -4.765625 C 0.828125 -4.265625 0.53125 -3.546875 0.53125 -2.5625 C 0.53125 -0.796875 1.5 0.125 2.828125 0.125 C 3.4375 0.125 3.984375 -0.171875 4.546875 -0.578125 L 4.546875 1.578125 C 4.546875 2.140625 4.5 2.15625 3.671875 2.21875 L 3.671875 2.53125 L 6.40625 2.53125 L 6.40625 2.21875 C 5.65625 2.15625 5.59375 2.140625 5.59375 1.578125 Z M 4.546875 -1.875 C 4.546875 -1.640625 4.546875 -1.453125 4.484375 -1.28125 C 4.265625 -0.6875 3.84375 -0.46875 3.25 -0.46875 C 2.15625 -0.46875 1.6875 -1.46875 1.6875 -2.703125 C 1.6875 -4.0625 2.15625 -5.140625 3.28125 -5.140625 C 3.84375 -5.140625 4.25 -4.9375 4.46875 -4.375 C 4.53125 -4.203125 4.546875 -4 4.546875 -3.734375 Z M 4.546875 -1.875 "/>
</symbol>
<symbol overflow="visible" id="glyph2-3">
<path style="stroke:none;" d="M 6.5 0 L 6.5 -0.3125 C 5.734375 -0.375 5.671875 -0.390625 5.671875 -0.953125 L 5.671875 -5.453125 L 5.59375 -5.515625 L 3.875 -5.25 L 3.875 -4.96875 L 4.296875 -4.921875 C 4.578125 -4.875 4.640625 -4.8125 4.640625 -4.421875 L 4.640625 -1.953125 C 4.640625 -1.640625 4.609375 -1.390625 4.546875 -1.28125 C 4.296875 -0.78125 3.765625 -0.46875 3.203125 -0.46875 C 2.5625 -0.46875 2.09375 -0.859375 2.09375 -1.71875 L 2.09375 -5.453125 L 2.015625 -5.515625 L 0.28125 -5.25 L 0.28125 -4.96875 L 0.703125 -4.921875 C 0.984375 -4.875 1.0625 -4.8125 1.0625 -4.421875 L 1.0625 -1.515625 C 1.0625 -0.25 1.796875 0.125 2.625 0.125 C 3.546875 0.125 4.3125 -0.5 4.625 -0.65625 L 4.734375 0 Z M 6.5 0 "/>
</symbol>
<symbol overflow="visible" id="glyph2-4">
<path style="stroke:none;" d="M 3.765625 -1.578125 C 3.765625 -0.6875 3.09375 -0.453125 2.65625 -0.453125 C 1.984375 -0.453125 1.65625 -0.9375 1.65625 -1.578125 C 1.65625 -2.09375 1.890625 -2.359375 2.515625 -2.59375 C 2.953125 -2.765625 3.53125 -2.96875 3.765625 -3.125 Z M 4.765625 -4.0625 C 4.765625 -4.703125 4.625 -5.515625 2.953125 -5.515625 C 1.71875 -5.515625 0.734375 -4.875 0.734375 -4.265625 C 0.734375 -3.921875 1.140625 -3.75 1.359375 -3.75 C 1.578125 -3.75 1.65625 -3.875 1.703125 -4.0625 C 1.953125 -4.875 2.390625 -5.140625 2.84375 -5.140625 C 3.265625 -5.140625 3.765625 -4.921875 3.765625 -4.03125 L 3.765625 -3.578125 C 3.5 -3.28125 2.4375 -3.015625 1.5625 -2.734375 C 0.765625 -2.5 0.53125 -1.953125 0.53125 -1.4375 C 0.53125 -0.609375 1.09375 0.125 2.125 0.125 C 2.8125 0.109375 3.40625 -0.296875 3.765625 -0.53125 C 3.921875 -0.125 4.09375 0.125 4.484375 0.125 C 4.890625 0.125 5.359375 0.015625 5.78125 -0.203125 L 5.703125 -0.46875 C 5.5625 -0.421875 5.3125 -0.40625 5.140625 -0.453125 C 4.953125 -0.5 4.765625 -0.703125 4.765625 -1.390625 Z M 4.765625 -4.0625 "/>
</symbol>
<symbol overflow="visible" id="glyph2-5">
<path style="stroke:none;" d="M 3.59375 -4.953125 L 3.59375 -5.390625 L 2.171875 -5.390625 L 2.171875 -6.78125 L 1.84375 -6.78125 L 1.171875 -5.390625 L 0.34375 -5.390625 L 0.34375 -4.953125 L 1.140625 -4.953125 L 1.140625 -1.125 C 1.140625 0 1.96875 0.125 2.359375 0.125 C 2.921875 0.125 3.4375 -0.15625 3.765625 -0.359375 L 3.671875 -0.578125 C 3.40625 -0.46875 3.171875 -0.4375 2.890625 -0.4375 C 2.515625 -0.4375 2.171875 -0.703125 2.171875 -1.546875 L 2.171875 -4.953125 Z M 3.59375 -4.953125 "/>
</symbol>
<symbol overflow="visible" id="glyph2-6">
<path style="stroke:none;" d="M 0.40625 -5.25 L 0.40625 -4.96875 L 0.828125 -4.921875 C 1.109375 -4.875 1.171875 -4.8125 1.171875 -4.421875 L 1.171875 -0.953125 C 1.171875 -0.390625 1.140625 -0.375 0.359375 -0.3125 L 0.359375 0 L 3.03125 0 L 3.03125 -0.3125 C 2.25 -0.375 2.21875 -0.390625 2.21875 -0.953125 L 2.21875 -5.453125 L 2.140625 -5.515625 Z M 1.6875 -7.859375 C 1.28125 -7.859375 1.015625 -7.578125 1.015625 -7.1875 C 1.015625 -6.796875 1.28125 -6.515625 1.6875 -6.515625 C 2.09375 -6.515625 2.34375 -6.796875 2.359375 -7.1875 C 2.359375 -7.578125 2.09375 -7.859375 1.6875 -7.859375 Z M 1.6875 -7.859375 "/>
</symbol>
<symbol overflow="visible" id="glyph2-7">
<path style="stroke:none;" d="M 3.171875 -5.515625 C 1.40625 -5.515625 0.53125 -4.484375 0.53125 -2.6875 C 0.53125 -0.90625 1.40625 0.125 3.171875 0.125 C 4.953125 0.125 5.8125 -0.90625 5.8125 -2.6875 C 5.8125 -4.484375 4.953125 -5.515625 3.171875 -5.515625 Z M 1.6875 -2.6875 C 1.6875 -4.21875 2.171875 -5.140625 3.171875 -5.140625 C 4.1875 -5.140625 4.65625 -4.21875 4.65625 -2.6875 C 4.65625 -1.171875 4.1875 -0.25 3.171875 -0.25 C 2.171875 -0.25 1.6875 -1.171875 1.6875 -2.6875 Z M 1.6875 -2.6875 "/>
</symbol>
<symbol overflow="visible" id="glyph2-8">
<path style="stroke:none;" d="M 5.8125 -3.765625 C 5.8125 -4.890625 5.21875 -5.515625 4.203125 -5.515625 C 3.390625 -5.515625 2.875 -5.125 2.203125 -4.6875 L 2.046875 -5.515625 L 0.40625 -5.25 L 0.40625 -4.96875 L 0.828125 -4.921875 C 1.109375 -4.875 1.171875 -4.8125 1.171875 -4.421875 L 1.171875 -0.953125 C 1.171875 -0.390625 1.140625 -0.375 0.359375 -0.3125 L 0.359375 0 L 3.03125 0 L 3.03125 -0.3125 C 2.25 -0.375 2.21875 -0.390625 2.21875 -0.953125 L 2.21875 -3.53125 C 2.21875 -3.8125 2.234375 -3.953125 2.328125 -4.140625 C 2.546875 -4.5625 3.046875 -4.921875 3.625 -4.921875 C 4.375 -4.921875 4.78125 -4.515625 4.78125 -3.546875 L 4.78125 -0.953125 C 4.78125 -0.390625 4.75 -0.375 3.953125 -0.3125 L 3.953125 0 L 6.640625 0 L 6.640625 -0.3125 C 5.859375 -0.375 5.8125 -0.390625 5.8125 -0.953125 Z M 5.8125 -3.765625 "/>
</symbol>
<symbol overflow="visible" id="glyph2-9">
<path style="stroke:none;" d="M 6.40625 0 L 6.40625 -0.3125 C 5.625 -0.375 5.59375 -0.390625 5.59375 -0.953125 L 5.59375 -8.09375 L 5.515625 -8.15625 L 3.78125 -7.890625 L 3.78125 -7.609375 L 4.203125 -7.5625 C 4.484375 -7.53125 4.546875 -7.484375 4.546875 -7.0625 L 4.546875 -5.265625 C 4.25 -5.421875 3.84375 -5.515625 3.328125 -5.515625 C 2.4375 -5.515625 1.765625 -5.234375 1.296875 -4.765625 C 0.828125 -4.265625 0.53125 -3.546875 0.53125 -2.578125 C 0.53125 -0.953125 1.390625 0.125 2.84375 0.125 C 3.4375 0.125 3.953125 -0.125 4.546875 -0.609375 L 4.546875 -0.078125 L 4.625 0 Z M 4.546875 -1.875 C 4.546875 -1.625 4.546875 -1.4375 4.484375 -1.25 C 4.25 -0.6875 3.765625 -0.46875 3.203125 -0.46875 C 2.1875 -0.46875 1.6875 -1.453125 1.6875 -2.71875 C 1.6875 -4.140625 2.203125 -5.140625 3.328125 -5.140625 C 3.84375 -5.140625 4.25 -4.890625 4.453125 -4.4375 C 4.546875 -4.25 4.546875 -4.109375 4.546875 -3.8125 Z M 4.546875 -1.875 "/>
</symbol>
<symbol overflow="visible" id="glyph2-10">
<path style="stroke:none;" d="M 4.84375 -2.890625 C 5.078125 -2.890625 5.296875 -2.953125 5.296875 -3.3125 C 5.296875 -3.953125 5.078125 -5.515625 3.0625 -5.515625 C 1.359375 -5.515625 0.53125 -4.296875 0.53125 -2.65625 C 0.53125 -0.90625 1.28125 0.15625 3.078125 0.125 C 4.296875 0.125 4.921875 -0.546875 5.21875 -1.421875 L 4.890625 -1.59375 C 4.59375 -0.953125 4.171875 -0.421875 3.296875 -0.421875 C 1.9375 -0.421875 1.65625 -1.75 1.6875 -2.890625 Z M 1.6875 -3.3125 C 1.6875 -3.765625 1.859375 -5.140625 3 -5.140625 C 4.03125 -5.140625 4.140625 -4.09375 4.140625 -3.65625 C 4.140625 -3.453125 4.078125 -3.3125 3.765625 -3.3125 Z M 1.6875 -3.3125 "/>
</symbol>
<symbol overflow="visible" id="glyph2-11">
<path style="stroke:none;" d="M 2.078125 -5.515625 L 0.40625 -5.25 L 0.40625 -4.96875 L 0.828125 -4.921875 C 1.109375 -4.875 1.171875 -4.8125 1.171875 -4.421875 L 1.171875 -0.953125 C 1.171875 -0.390625 1.125 -0.375 0.359375 -0.3125 L 0.359375 0 L 3.25 0 L 3.25 -0.3125 C 2.28125 -0.375 2.21875 -0.390625 2.21875 -0.953125 L 2.21875 -3.53125 C 2.21875 -4.375 2.578125 -4.65625 2.84375 -4.65625 C 3.015625 -4.65625 3.203125 -4.59375 3.515625 -4.421875 C 3.59375 -4.375 3.6875 -4.359375 3.734375 -4.359375 C 4 -4.359375 4.25 -4.640625 4.25 -4.984375 C 4.25 -5.21875 4.09375 -5.515625 3.65625 -5.515625 C 3.265625 -5.515625 2.9375 -5.28125 2.21875 -4.640625 Z M 2.078125 -5.515625 "/>
</symbol>
<symbol overflow="visible" id="glyph2-12">
<path style="stroke:none;" d="M 4.84375 -2.890625 C 5.078125 -2.890625 5.296875 -2.953125 5.296875 -3.3125 C 5.296875 -3.953125 5.078125 -5.515625 3.0625 -5.515625 C 1.359375 -5.515625 0.53125 -4.296875 0.53125 -2.65625 C 0.53125 -0.90625 1.28125 0.15625 3.078125 0.125 C 4.296875 0.125 4.921875 -0.546875 5.21875 -1.421875 L 4.890625 -1.59375 C 4.59375 -0.953125 4.171875 -0.421875 3.296875 -0.421875 C 1.9375 -0.421875 1.65625 -1.75 1.6875 -2.890625 Z M 1.6875 -3.3125 C 1.6875 -3.765625 1.859375 -5.140625 3 -5.140625 C 4.03125 -5.140625 4.140625 -4.09375 4.140625 -3.65625 C 4.140625 -3.453125 4.078125 -3.3125 3.765625 -3.3125 Z M 2.375 -5.96875 L 4.03125 -6.890625 C 4.359375 -7.0625 4.65625 -7.25 4.65625 -7.484375 C 4.65625 -7.703125 4.390625 -7.953125 4.21875 -7.953125 C 4.03125 -7.953125 3.84375 -7.84375 3.515625 -7.5 L 2.21875 -6.1875 Z M 2.375 -5.96875 "/>
</symbol>
<symbol overflow="visible" id="glyph2-13">
<path style="stroke:none;" d="M 3.296875 -0.4375 C 1.984375 -0.4375 1.6875 -1.796875 1.6875 -2.84375 C 1.6875 -4.484375 2.328125 -5.140625 3.09375 -5.140625 C 3.59375 -5.140625 3.921875 -4.78125 4.140625 -4.1875 C 4.203125 -4 4.265625 -3.890625 4.484375 -3.890625 C 4.703125 -3.890625 5.125 -4.03125 5.125 -4.453125 C 5.125 -4.96875 4.40625 -5.515625 3.21875 -5.515625 C 1.203125 -5.515625 0.53125 -4.109375 0.53125 -2.640625 C 0.53125 -0.796875 1.4375 0.125 3.09375 0.125 C 3.859375 0.125 4.890625 -0.28125 5.203125 -1.453125 L 4.890625 -1.609375 C 4.546875 -0.84375 4.109375 -0.4375 3.296875 -0.4375 Z M 3.296875 -0.4375 "/>
</symbol>
<symbol overflow="visible" id="glyph2-14">
<path style="stroke:none;" d="M 1.46875 0.125 C 1.890625 0.125 2.140625 -0.171875 2.15625 -0.5625 C 2.15625 -0.96875 1.890625 -1.28125 1.46875 -1.28125 C 1.046875 -1.28125 0.765625 -0.96875 0.765625 -0.5625 C 0.765625 -0.171875 1.046875 0.125 1.46875 0.125 Z M 1.46875 -3.984375 C 1.890625 -3.984375 2.140625 -4.28125 2.15625 -4.6875 C 2.15625 -5.078125 1.890625 -5.390625 1.46875 -5.390625 C 1.046875 -5.390625 0.765625 -5.078125 0.765625 -4.6875 C 0.765625 -4.28125 1.046875 -3.984375 1.46875 -3.984375 Z M 1.46875 -3.984375 "/>
</symbol>
<symbol overflow="visible" id="glyph2-15">
<path style="stroke:none;" d="M 4.03125 -3.859375 L 4.03125 -5.140625 C 3.671875 -5.40625 3.109375 -5.515625 2.625 -5.515625 C 1.4375 -5.515625 0.625 -4.96875 0.609375 -3.921875 C 0.625 -3 1.359375 -2.59375 2.28125 -2.328125 C 2.765625 -2.171875 3.46875 -1.90625 3.46875 -1.171875 C 3.46875 -0.609375 3.03125 -0.25 2.4375 -0.25 C 1.546875 -0.25 1.0625 -0.90625 0.84375 -1.84375 L 0.515625 -1.84375 L 0.625 -0.390625 C 1.015625 -0.046875 1.6875 0.125 2.34375 0.125 C 3.65625 0.125 4.40625 -0.5625 4.40625 -1.5 C 4.40625 -2.46875 3.8125 -2.90625 2.671875 -3.25 C 2.21875 -3.40625 1.5 -3.625 1.5 -4.25 C 1.5 -4.8125 1.9375 -5.140625 2.484375 -5.140625 C 3.265625 -5.140625 3.640625 -4.53125 3.71875 -3.859375 Z M 4.03125 -3.859375 "/>
</symbol>
<symbol overflow="visible" id="glyph2-16">
<path style="stroke:none;" d="M -0.0625 -5.390625 L -0.0625 -5.078125 C 0.46875 -5.046875 0.578125 -4.984375 0.78125 -4.5 C 1.328125 -3.171875 2.25 -0.84375 2.515625 -0.078125 C 2.578125 0.109375 2.59375 0.28125 2.59375 0.46875 C 2.59375 0.71875 2.5 1.046875 2.328125 1.390625 C 2.171875 1.765625 1.96875 1.859375 1.84375 1.859375 C 1.734375 1.859375 1.640625 1.828125 1.4375 1.625 C 1.328125 1.53125 1.25 1.46875 1.109375 1.46875 C 0.90625 1.46875 0.625 1.765625 0.625 2.09375 C 0.625 2.359375 0.9375 2.65625 1.390625 2.65625 C 1.84375 2.65625 2.390625 2.53125 2.953125 0.90625 C 3.640625 -1.0625 4.65625 -3.734375 5 -4.515625 C 5.1875 -4.953125 5.265625 -5.03125 5.8125 -5.078125 L 5.8125 -5.390625 L 3.703125 -5.390625 L 3.703125 -5.078125 L 4.265625 -5.015625 C 4.453125 -5 4.484375 -4.859375 4.421875 -4.640625 C 4.25 -3.984375 3.6875 -2.328125 3.203125 -1 L 3.171875 -1 C 2.671875 -2.328125 2.234375 -3.53125 1.828125 -4.6875 C 1.765625 -4.890625 1.734375 -5 1.984375 -5.03125 L 2.46875 -5.078125 L 2.46875 -5.390625 Z M -0.0625 -5.390625 "/>
</symbol>
<symbol overflow="visible" id="glyph2-17">
<path style="stroke:none;" d="M 4.84375 -2.890625 C 5.078125 -2.890625 5.296875 -2.953125 5.296875 -3.3125 C 5.296875 -3.953125 5.078125 -5.515625 3.0625 -5.515625 C 1.359375 -5.515625 0.53125 -4.296875 0.53125 -2.65625 C 0.53125 -0.90625 1.28125 0.15625 3.078125 0.125 C 4.296875 0.125 4.921875 -0.546875 5.21875 -1.421875 L 4.890625 -1.59375 C 4.59375 -0.953125 4.171875 -0.421875 3.296875 -0.421875 C 1.9375 -0.421875 1.65625 -1.75 1.6875 -2.890625 Z M 1.6875 -3.3125 C 1.6875 -3.765625 1.859375 -5.140625 3 -5.140625 C 4.03125 -5.140625 4.140625 -4.09375 4.140625 -3.65625 C 4.140625 -3.453125 4.078125 -3.3125 3.765625 -3.3125 Z M 3.765625 -6.1875 L 2.46875 -7.5 C 2.140625 -7.84375 1.953125 -7.953125 1.765625 -7.953125 C 1.59375 -7.953125 1.328125 -7.703125 1.328125 -7.484375 C 1.328125 -7.25 1.609375 -7.0625 1.953125 -6.890625 L 3.609375 -5.96875 Z M 3.765625 -6.1875 "/>
</symbol>
<symbol overflow="visible" id="glyph2-18">
<path style="stroke:none;" d="M 0.40625 -5.25 L 0.40625 -4.96875 L 0.828125 -4.921875 C 1.109375 -4.875 1.171875 -4.8125 1.171875 -4.421875 L 1.171875 -0.953125 C 1.171875 -0.390625 1.140625 -0.375 0.359375 -0.3125 L 0.359375 0 L 3.03125 0 L 3.03125 -0.3125 C 2.25 -0.375 2.21875 -0.390625 2.21875 -0.953125 L 2.21875 -3.53125 C 2.21875 -3.8125 2.21875 -3.953125 2.296875 -4.109375 C 2.515625 -4.546875 2.984375 -4.921875 3.59375 -4.921875 C 4.546875 -4.921875 4.65625 -4.234375 4.65625 -3.546875 L 4.65625 -0.953125 C 4.65625 -0.390625 4.625 -0.375 3.828125 -0.3125 L 3.828125 0 L 6.515625 0 L 6.515625 -0.3125 C 5.734375 -0.375 5.6875 -0.390625 5.6875 -0.953125 L 5.6875 -3.53125 C 5.6875 -3.8125 5.703125 -3.953125 5.765625 -4.140625 C 5.921875 -4.578125 6.40625 -4.921875 7.015625 -4.921875 C 7.71875 -4.953125 8.125 -4.515625 8.125 -3.546875 L 8.125 -0.953125 C 8.125 -0.390625 8.09375 -0.375 7.296875 -0.3125 L 7.296875 0 L 9.984375 0 L 9.984375 -0.3125 C 9.203125 -0.375 9.15625 -0.390625 9.15625 -0.953125 L 9.15625 -3.765625 C 9.15625 -4.890625 8.5625 -5.515625 7.53125 -5.515625 C 6.625 -5.515625 5.96875 -4.921875 5.59375 -4.671875 C 5.328125 -5.1875 4.90625 -5.515625 4.140625 -5.515625 C 3.28125 -5.515625 2.59375 -4.96875 2.21875 -4.6875 L 2.109375 -5.515625 Z M 0.40625 -5.25 "/>
</symbol>
<symbol overflow="visible" id="glyph2-19">
<path style="stroke:none;" d="M 7.15625 0 L 7.15625 -0.3125 C 6.515625 -0.375 6.390625 -0.40625 6.1875 -0.984375 L 3.859375 -7.609375 L 3.046875 -7.609375 L 1.890625 -4.359375 C 1.546875 -3.40625 1.09375 -2.078125 0.703125 -1.078125 C 0.46875 -0.484375 0.375 -0.359375 -0.3125 -0.3125 L -0.3125 0 L 2.09375 0 L 2.09375 -0.3125 L 1.53125 -0.375 C 1.203125 -0.40625 1.171875 -0.515625 1.25 -0.8125 C 1.4375 -1.46875 1.671875 -2.15625 1.921875 -2.9375 L 4.390625 -2.9375 L 5.125 -0.84375 C 5.234375 -0.515625 5.1875 -0.390625 4.828125 -0.359375 L 4.328125 -0.3125 L 4.328125 0 Z M 4.25 -3.359375 L 2.0625 -3.359375 C 2.421875 -4.453125 2.8125 -5.53125 3.140625 -6.5 L 3.171875 -6.5 Z M 4.25 -3.359375 "/>
</symbol>
<symbol overflow="visible" id="glyph2-20">
<path style="stroke:none;" d="M 3.734375 -5.390625 L 3.734375 -5.078125 L 4.265625 -5.015625 C 4.4375 -5 4.484375 -4.875 4.4375 -4.71875 C 4.34375 -4.359375 4.140625 -3.734375 3.890625 -3.03125 L 3.140625 -0.984375 L 3.125 -0.984375 L 2.453125 -2.84375 C 2.234375 -3.46875 2.015625 -4.109375 1.796875 -4.703125 C 1.734375 -4.90625 1.765625 -5 1.984375 -5.015625 L 2.46875 -5.078125 L 2.46875 -5.390625 L 0.015625 -5.390625 L 0.015625 -5.078125 C 0.53125 -5.03125 0.625 -4.984375 0.796875 -4.578125 C 1.09375 -3.84375 1.34375 -3.140625 1.609375 -2.375 L 2.46875 0 L 3.25 0 L 4.234375 -2.65625 C 4.546875 -3.515625 4.875 -4.25 5.03125 -4.59375 C 5.1875 -4.984375 5.3125 -5.046875 5.8125 -5.078125 L 5.8125 -5.390625 Z M 3.734375 -5.390625 "/>
</symbol>
<symbol overflow="visible" id="glyph2-21">
<path style="stroke:none;" d="M 0.8125 -3.140625 L 0.8125 -2.375 L 3.515625 -2.375 L 3.515625 -3.140625 Z M 0.8125 -3.140625 "/>
</symbol>
<symbol overflow="visible" id="glyph2-22">
<path style="stroke:none;" d="M 1.921875 -3.109375 C 1.921875 -6.25 2.875 -7.1875 3.578125 -7.34375 L 3.578125 -7.609375 C 1.65625 -7.53125 1.15625 -5.140625 1.15625 -3.109375 C 1.15625 -1.0625 1.65625 1.328125 3.578125 1.40625 L 3.578125 1.140625 C 2.9375 1 1.921875 0.0625 1.921875 -3.109375 Z M 1.921875 -3.109375 "/>
</symbol>
<symbol overflow="visible" id="glyph2-23">
<path style="stroke:none;" d="M 1.921875 -3.109375 C 1.921875 0.0625 0.90625 1 0.28125 1.140625 L 0.28125 1.40625 C 2.203125 1.328125 2.6875 -1.0625 2.6875 -3.109375 C 2.6875 -5.140625 2.203125 -7.53125 0.28125 -7.609375 L 0.28125 -7.34375 C 0.96875 -7.1875 1.921875 -6.25 1.921875 -3.109375 Z M 1.921875 -3.109375 "/>
</symbol>
<symbol overflow="visible" id="glyph2-24">
<path style="stroke:none;" d="M 2.078125 -8.09375 L 2 -8.15625 L 0.28125 -7.890625 L 0.28125 -7.609375 L 0.6875 -7.5625 C 0.984375 -7.53125 1.046875 -7.484375 1.046875 -7.0625 L 1.046875 -0.953125 C 1.046875 -0.390625 1.015625 -0.375 0.21875 -0.3125 L 0.21875 0 L 2.90625 0 L 2.90625 -0.3125 C 2.125 -0.375 2.078125 -0.390625 2.078125 -0.953125 Z M 2.078125 -8.09375 "/>
</symbol>
<symbol overflow="visible" id="glyph2-25">
<path style="stroke:none;" d="M 2.921875 -7.09375 C 3.953125 -7.09375 4.25 -5.46875 4.25 -3.671875 C 4.25 -1.875 3.953125 -0.25 2.921875 -0.25 C 1.875 -0.25 1.578125 -1.875 1.578125 -3.671875 C 1.578125 -5.46875 1.875 -7.09375 2.921875 -7.09375 Z M 2.921875 -7.484375 C 1.09375 -7.484375 0.453125 -5.875 0.453125 -3.671875 C 0.453125 -1.46875 1.09375 0.125 2.921875 0.125 C 4.734375 0.125 5.375 -1.46875 5.375 -3.671875 C 5.375 -5.875 4.734375 -7.484375 2.921875 -7.484375 Z M 2.921875 -7.484375 "/>
</symbol>
<symbol overflow="visible" id="glyph2-26">
<path style="stroke:none;" d="M 4.328125 -4.953125 C 4.625 -4.953125 4.6875 -4.828125 4.6875 -4.4375 L 4.6875 -0.953125 C 4.6875 -0.390625 4.65625 -0.375 3.859375 -0.3125 L 3.859375 0 L 6.546875 0 L 6.546875 -0.3125 C 5.765625 -0.375 5.71875 -0.390625 5.71875 -0.953125 L 5.71875 -5.515625 C 5.359375 -5.484375 4.703125 -5.390625 3.8125 -5.390625 L 2.21875 -5.390625 L 2.21875 -5.890625 C 2.21875 -7.515625 2.953125 -7.78125 3.546875 -7.78125 C 4.09375 -7.78125 4.484375 -7.4375 4.703125 -6.84375 C 4.734375 -6.734375 4.8125 -6.640625 5 -6.640625 C 5.25 -6.640625 5.609375 -6.796875 5.609375 -7.15625 C 5.609375 -7.640625 4.921875 -8.15625 3.671875 -8.15625 C 2.84375 -8.15625 2.171875 -7.875 1.765625 -7.40625 C 1.375 -6.96875 1.171875 -6.34375 1.171875 -5.59375 L 1.171875 -5.390625 L 0.328125 -5.390625 L 0.328125 -4.953125 L 1.171875 -4.953125 L 1.171875 -0.953125 C 1.171875 -0.390625 1.140625 -0.375 0.359375 -0.3125 L 0.359375 0 L 3.140625 0 L 3.140625 -0.3125 C 2.25 -0.359375 2.21875 -0.390625 2.21875 -0.953125 L 2.21875 -4.953125 Z M 4.328125 -4.953125 "/>
</symbol>
<symbol overflow="visible" id="glyph3-0">
<path style="stroke:none;" d=""/>
</symbol>
<symbol overflow="visible" id="glyph3-1">
<path style="stroke:none;" d="M 5.296875 -4.890625 C 5.09375 -4.078125 4.703125 -2.984375 4.109375 -2.109375 C 3.5 -1.171875 2.828125 -0.4375 2.296875 -0.4375 C 1.9375 -0.4375 1.8125 -0.78125 1.8125 -1.203125 C 1.8125 -2.421875 2.890625 -5.140625 4.625 -5.140625 C 4.890625 -5.140625 5.125 -5.046875 5.296875 -4.890625 Z M 5.453125 -5.4375 L 5.40625 -5.296875 C 5.21875 -5.421875 4.890625 -5.515625 4.59375 -5.515625 C 1.984375 -5.515625 0.71875 -2.625 0.71875 -1.171875 C 0.71875 -0.515625 1.03125 0.125 1.78125 0.125 C 2.953125 0.125 3.984375 -1.234375 4.625 -2.359375 L 4.640625 -2.359375 L 4.265625 -1.09375 C 4.03125 -0.3125 4.15625 0.125 4.75 0.125 C 5.59375 0.125 6.203125 -0.609375 6.578125 -1.453125 L 6.3125 -1.609375 C 6.109375 -1.21875 5.625 -0.4375 5.328125 -0.4375 C 5.109375 -0.4375 5.109375 -0.6875 5.21875 -1.046875 L 6.375 -5.4375 Z M 5.453125 -5.4375 "/>
</symbol>
<symbol overflow="visible" id="glyph3-2">
<path style="stroke:none;" d="M 7.171875 0 L 7.234375 -0.3125 L 6.8125 -0.359375 C 6.484375 -0.390625 6.4375 -0.53125 6.375 -0.984375 L 5.5625 -7.609375 L 4.78125 -7.609375 L 2.9375 -4.359375 C 2.375 -3.390625 1.46875 -1.75 1.0625 -1.09375 C 0.703125 -0.515625 0.515625 -0.390625 0.171875 -0.359375 L -0.1875 -0.3125 L -0.25 0 L 2.21875 0 L 2.28125 -0.3125 L 1.6875 -0.375 C 1.46875 -0.390625 1.4375 -0.546875 1.546875 -0.78125 C 1.90625 -1.484375 2.265625 -2.203125 2.671875 -2.9375 L 5.140625 -2.9375 L 5.390625 -0.796875 C 5.421875 -0.484375 5.328125 -0.390625 5.109375 -0.375 L 4.53125 -0.3125 L 4.46875 0 Z M 5.078125 -3.359375 L 2.890625 -3.359375 C 3.46875 -4.4375 4.078125 -5.515625 4.671875 -6.59375 L 4.703125 -6.59375 Z M 5.078125 -3.359375 "/>
</symbol>
<symbol overflow="visible" id="glyph3-3">
<path style="stroke:none;" d="M 5.4375 -4.03125 C 5.4375 -3.25 4.78125 -0.25 3.15625 -0.25 C 2.59375 -0.25 2.25 -0.65625 2.25 -1.203125 C 2.25 -1.734375 2.484375 -2.484375 2.84375 -3.125 C 3.328125 -4 4.15625 -4.953125 4.84375 -4.953125 C 5.25 -4.953125 5.4375 -4.65625 5.4375 -4.03125 Z M 3.765625 -8.109375 L 3.703125 -8.15625 L 1.734375 -7.890625 L 1.671875 -7.640625 L 2.296875 -7.5625 C 2.578125 -7.53125 2.625 -7.453125 2.515625 -7.03125 L 0.90625 0 L 1.296875 0 L 1.640625 -0.640625 C 1.84375 -0.171875 2.390625 0.125 3.03125 0.125 C 4.3125 0.125 5.25 -0.71875 5.78125 -1.6875 C 6.34375 -2.65625 6.515625 -3.640625 6.515625 -4.140625 C 6.515625 -4.953125 6.15625 -5.515625 5.328125 -5.515625 C 4.5 -5.515625 3.40625 -4.765625 2.5625 -3.25 L 2.546875 -3.25 Z M 3.765625 -8.109375 "/>
</symbol>
<symbol overflow="visible" id="glyph3-4">
<path style="stroke:none;" d="M 3.359375 -4.296875 L 3.953125 -6.84375 C 4.03125 -7.171875 4.078125 -7.234375 4.8125 -7.234375 C 5.734375 -7.234375 6.265625 -6.765625 6.265625 -6 C 6.265625 -5.4375 6 -5 5.609375 -4.703125 C 5.25 -4.421875 4.671875 -4.296875 4.078125 -4.296875 Z M 3.71875 -3.90625 C 4.8125 -3.90625 5.765625 -3.59375 5.765625 -2.34375 C 5.765625 -1.359375 5.171875 -0.390625 3.703125 -0.390625 C 2.609375 -0.390625 2.5625 -0.65625 2.65625 -1.09375 L 3.28125 -3.90625 Z M 0.421875 0 L 3.765625 0 C 6.421875 0 6.953125 -1.359375 6.953125 -2.28125 C 6.953125 -3.4375 6.09375 -3.9375 5.296875 -4.09375 L 5.296875 -4.125 C 6.765625 -4.296875 7.375 -5.109375 7.375 -5.953125 C 7.375 -6.515625 7.15625 -6.96875 6.6875 -7.25 C 6.203125 -7.546875 5.484375 -7.625 4.703125 -7.609375 L 2.046875 -7.609375 L 1.984375 -7.296875 L 2.625 -7.234375 C 2.875 -7.203125 2.953125 -7.078125 2.859375 -6.703125 L 1.5625 -0.90625 C 1.484375 -0.546875 1.359375 -0.421875 1.09375 -0.390625 L 0.484375 -0.3125 Z M 0.421875 0 "/>
</symbol>
<symbol overflow="visible" id="glyph3-5">
<path style="stroke:none;" d="M 4.703125 -1.6875 C 4.328125 -1.1875 3.6875 -0.40625 2.953125 -0.40625 C 2.140625 -0.40625 1.984375 -1.0625 1.984375 -1.84375 C 1.984375 -3.28125 2.8125 -5.140625 3.8125 -5.140625 C 4.171875 -5.140625 4.40625 -4.921875 4.484375 -4.25 C 4.5 -4.0625 4.59375 -3.921875 4.796875 -3.921875 C 5.0625 -3.921875 5.5 -4.1875 5.5 -4.546875 C 5.5 -5.109375 4.90625 -5.515625 4.078125 -5.515625 C 2.125 -5.515625 0.890625 -3.4375 0.890625 -1.625 C 0.890625 -0.28125 1.6875 0.125 2.46875 0.125 C 3.28125 0.125 4.21875 -0.21875 4.96875 -1.484375 Z M 4.703125 -1.6875 "/>
</symbol>
<symbol overflow="visible" id="glyph3-6">
<path style="stroke:none;" d="M 7.140625 -2.046875 C 6.53125 -0.953125 5.96875 -0.21875 4.625 -0.21875 C 3.34375 -0.21875 2.4375 -1.046875 2.4375 -2.734375 C 2.4375 -3.734375 2.6875 -4.953125 3.21875 -5.828125 C 3.765625 -6.75 4.640625 -7.390625 5.8125 -7.390625 C 7.1875 -7.390625 7.671875 -6.75 7.609375 -5.546875 L 7.9375 -5.546875 L 8.34375 -7.1875 C 7.71875 -7.59375 6.671875 -7.78125 5.90625 -7.78125 C 3.84375 -7.78125 2.640625 -6.8125 2 -5.78125 C 1.390625 -4.796875 1.25 -3.78125 1.25 -3.03125 C 1.25 -1.578125 1.96875 0.171875 4.703125 0.171875 C 5.484375 0.171875 6.21875 0.0625 6.9375 -0.296875 L 7.46875 -2.046875 Z M 7.140625 -2.046875 "/>
</symbol>
<symbol overflow="visible" id="glyph3-7">
<path style="stroke:none;" d="M 1.875 -1.234375 C 1.875 -2.421875 2.84375 -5.140625 4.59375 -5.140625 C 4.9375 -5.140625 5.21875 -5.03125 5.359375 -4.921875 C 5.1875 -4.0625 4.828125 -3.03125 4.265625 -2.125 C 3.734375 -1.265625 3.015625 -0.4375 2.4375 -0.4375 C 2.078125 -0.4375 1.875 -0.734375 1.875 -1.234375 Z M 5.109375 -7.890625 L 5.03125 -7.640625 L 5.703125 -7.578125 C 5.96875 -7.5625 5.984375 -7.484375 5.890625 -7.125 L 5.484375 -5.359375 L 5.453125 -5.328125 C 5.25 -5.4375 4.90625 -5.515625 4.53125 -5.515625 C 1.96875 -5.515625 0.796875 -2.65625 0.796875 -1.3125 C 0.796875 -0.609375 1 0.125 1.890625 0.125 C 3.15625 0.125 4.140625 -1.21875 4.78125 -2.390625 L 4.8125 -2.390625 L 4.4375 -1.09375 C 4.21875 -0.3125 4.390625 0.140625 4.953125 0.125 C 5.75 0.125 6.375 -0.609375 6.75 -1.453125 L 6.484375 -1.609375 C 6.28125 -1.21875 5.796875 -0.4375 5.484375 -0.4375 C 5.265625 -0.4375 5.296875 -0.6875 5.375 -1.046875 L 7.109375 -8.109375 L 7.0625 -8.15625 Z M 5.109375 -7.890625 "/>
</symbol>
<symbol overflow="visible" id="glyph3-8">
<path style="stroke:none;" d="M 5.15625 -7.234375 C 7.453125 -7.1875 7.640625 -5.640625 7.640625 -4.765625 C 7.640625 -3.8125 7.421875 -2.921875 6.9375 -2.09375 C 6.296875 -1.0625 5.359375 -0.390625 3.53125 -0.390625 C 2.921875 -0.390625 2.515625 -0.46875 2.625 -0.953125 L 3.953125 -6.8125 C 4.046875 -7.1875 4.203125 -7.234375 5.15625 -7.234375 Z M 0.4375 0 L 3.8125 0 C 6.015625 0 7.296875 -0.796875 8.078125 -1.984375 C 8.71875 -2.9375 8.828125 -3.859375 8.828125 -4.515625 C 8.828125 -5.40625 8.5 -6.296875 7.875 -6.8125 C 7.234375 -7.359375 6.25 -7.609375 5.03125 -7.609375 L 2.0625 -7.609375 L 2 -7.296875 L 2.65625 -7.234375 C 2.90625 -7.21875 2.953125 -7.0625 2.875 -6.703125 L 1.578125 -0.90625 C 1.5 -0.546875 1.390625 -0.40625 1.125 -0.390625 L 0.5 -0.3125 Z M 0.4375 0 "/>
</symbol>
<symbol overflow="visible" id="glyph3-9">
<path style="stroke:none;" d="M 2.046875 0 C 2.359375 -1.125 2.546875 -1.71875 2.84375 -2.390625 C 3.25 -3.34375 4.296875 -4.953125 5.1875 -4.953125 C 5.578125 -4.953125 5.671875 -4.59375 5.5625 -4.171875 L 4.609375 -0.953125 C 4.4375 -0.328125 4.578125 0.125 5.171875 0.125 C 6 0.125 6.609375 -0.609375 6.984375 -1.453125 L 6.71875 -1.609375 C 6.515625 -1.21875 6.03125 -0.4375 5.734375 -0.4375 C 5.515625 -0.4375 5.515625 -0.6875 5.625 -1.046875 L 6.484375 -3.921875 C 6.734375 -4.796875 6.59375 -5.515625 5.703125 -5.515625 C 4.640625 -5.515625 3.5 -4.359375 2.84375 -3.0625 L 2.8125 -3.0625 L 3.515625 -5.46875 L 3.46875 -5.515625 L 1.453125 -5.21875 L 1.390625 -4.953125 L 2.0625 -4.890625 C 2.328125 -4.875 2.328125 -4.71875 2.234375 -4.359375 L 1.078125 0.125 Z M 2.046875 0 "/>
</symbol>
<symbol overflow="visible" id="glyph3-10">
<path style="stroke:none;" d="M 5.578125 -1.515625 C 5.3125 -1.015625 5.015625 -0.4375 4.703125 -0.4375 C 4.5 -0.4375 4.40625 -0.6875 4.171875 -1.671875 L 3.8125 -3.109375 C 4.21875 -3.8125 4.78125 -4.703125 5.09375 -4.703125 C 5.1875 -4.703125 5.28125 -4.671875 5.40625 -4.609375 C 5.515625 -4.5625 5.625 -4.515625 5.75 -4.515625 C 6 -4.515625 6.21875 -4.75 6.21875 -5.046875 C 6.21875 -5.390625 5.96875 -5.515625 5.671875 -5.515625 C 5.078125 -5.515625 4.59375 -5 4.203125 -4.375 L 3.71875 -3.625 L 3.703125 -3.625 L 3.25 -5.484375 L 3.1875 -5.515625 L 1.375 -4.96875 L 1.40625 -4.703125 L 2.234375 -4.765625 C 2.4375 -4.78125 2.515625 -4.71875 2.625 -4.21875 L 3.03125 -2.625 L 2.71875 -2.09375 C 2.25 -1.28125 1.84375 -0.71875 1.578125 -0.71875 C 1.46875 -0.71875 1.359375 -0.765625 1.25 -0.8125 C 1.140625 -0.875 1 -0.984375 0.8125 -0.984375 C 0.53125 -0.984375 0.34375 -0.6875 0.34375 -0.421875 C 0.34375 -0.109375 0.609375 0.125 1.046875 0.125 C 1.796875 0.125 2.21875 -0.609375 2.671875 -1.359375 L 3.109375 -2.078125 L 3.140625 -2.078125 L 3.328125 -1.21875 C 3.546875 -0.34375 3.75 0.125 4.3125 0.125 C 5.109375 0.125 5.53125 -0.6875 5.859375 -1.359375 Z M 5.578125 -1.515625 "/>
</symbol>
<symbol overflow="visible" id="glyph4-0">
<path style="stroke:none;" d=""/>
</symbol>
<symbol overflow="visible" id="glyph4-1">
<path style="stroke:none;" d="M 0.9375 -3.421875 L 0.9375 -2.78125 L 3.640625 -2.78125 L 3.640625 -0.078125 L 4.28125 -0.078125 L 4.28125 -2.78125 L 6.984375 -2.78125 L 6.984375 -3.421875 L 4.28125 -3.421875 L 4.28125 -6.125 L 3.640625 -6.125 L 3.640625 -3.421875 Z M 0.9375 -3.421875 "/>
</symbol>
<symbol overflow="visible" id="glyph4-2">
<path style="stroke:none;" d="M 6.984375 -2.78125 L 6.984375 -3.421875 L 0.9375 -3.421875 L 0.9375 -2.78125 Z M 6.984375 -2.78125 "/>
</symbol>
<symbol overflow="visible" id="glyph4-3">
<path style="stroke:none;" d="M 10.09375 -3.265625 C 9.40625 -3.484375 8.4375 -4.15625 8 -4.53125 L 7.78125 -4.234375 C 8.078125 -3.984375 8.34375 -3.609375 8.453125 -3.421875 L 0.796875 -3.421875 L 0.796875 -2.78125 L 8.453125 -2.78125 C 8.359375 -2.625 8.078125 -2.25 7.78125 -1.96875 L 8 -1.671875 C 8.4375 -2.046875 9.421875 -2.71875 10.09375 -2.9375 Z M 10.09375 -3.265625 "/>
</symbol>
<symbol overflow="visible" id="glyph4-4">
<path style="stroke:none;" d="M 6.984375 -1.578125 L 6.984375 -2.21875 L 0.9375 -2.21875 L 0.9375 -1.578125 Z M 6.984375 -4 L 6.984375 -4.625 L 0.9375 -4.625 L 0.9375 -4 Z M 6.984375 -4 "/>
</symbol>
<symbol overflow="visible" id="glyph5-0">
<path style="stroke:none;" d=""/>
</symbol>
<symbol overflow="visible" id="glyph5-1">
<path style="stroke:none;" d="M 1.09375 -3.90625 L 1.046875 -3.71875 L 1.515625 -3.671875 C 1.734375 -3.65625 1.75 -3.578125 1.6875 -3.296875 L 0.984375 -0.703125 C 0.859375 -0.234375 0.96875 0.09375 1.421875 0.09375 C 2.015625 0.09375 2.46875 -0.46875 2.75 -1.09375 L 2.5625 -1.203125 C 2.40625 -0.921875 2.046875 -0.328125 1.8125 -0.328125 C 1.65625 -0.328125 1.65625 -0.515625 1.734375 -0.78125 L 2.625 -4.09375 L 2.59375 -4.140625 Z M 2.546875 -5.90625 C 2.1875 -5.90625 2.015625 -5.625 2.015625 -5.359375 C 2.015625 -5.046875 2.21875 -4.890625 2.46875 -4.890625 C 2.78125 -4.890625 3 -5.109375 3 -5.4375 C 3 -5.765625 2.78125 -5.90625 2.546875 -5.90625 Z M 2.546875 -5.90625 "/>
</symbol>
</g>
</defs>
<g id="surface1">
<path style="fill:none;stroke-width:0.398;stroke-linecap:butt;stroke-linejoin:miter;stroke:rgb(0%,0%,0%);stroke-opacity:1;stroke-miterlimit:10;" d="M 0.00190625 0.0003125 L 388.544875 0.0003125 " transform="matrix(1,0,0,-1,39.627,5.18)"/>
<path style="fill:none;stroke-width:0.398;stroke-linecap:butt;stroke-linejoin:miter;stroke:rgb(0%,0%,0%);stroke-opacity:1;stroke-miterlimit:10;" d="M 0.001125 0.00015625 L 0.001125 17.336094 " transform="matrix(1,0,0,-1,39.827,22.715)"/>
<g style="fill:rgb(0%,0%,0%);fill-opacity:1;">
  <use xlink:href="#glyph0-1" x="42.018" y="17.514"/>
</g>
<g style="fill:rgb(0%,0%,0%);fill-opacity:1;">
  <use xlink:href="#glyph1-1" x="48.331" y="19.307"/>
</g>
<path style="fill:none;stroke-width:0.398;stroke-linecap:butt;stroke-linejoin:miter;stroke:rgb(0%,0%,0%);stroke-opacity:1;stroke-miterlimit:10;" d="M -0.00146875 0.00015625 L -0.00146875 17.336094 " transform="matrix(1,0,0,-1,55.396,22.715)"/>
<path style="fill:none;stroke-width:0.398;stroke-linecap:butt;stroke-linejoin:miter;stroke:rgb(0%,0%,0%);stroke-opacity:1;stroke-miterlimit:10;" d="M 0.001875 0.00015625 L 0.001875 17.336094 " transform="matrix(1,0,0,-1,55.795,22.715)"/>
<g style="fill:rgb(0%,0%,0%);fill-opacity:1;">
  <use xlink:href="#glyph2-1" x="57.986" y="17.514"/>
</g>
<g style="fill:rgb(0%,0%,0%);fill-opacity:1;">
  <use xlink:href="#glyph2-2" x="64.58522" y="17.514"/>
  <use xlink:href="#glyph2-3" x="71.085452" y="17.514"/>
</g>
<g style="fill:rgb(0%,0%,0%);fill-opacity:1;">
  <use xlink:href="#glyph2-4" x="77.761663" y="17.514"/>
  <use xlink:href="#glyph2-5" x="83.513983" y="17.514"/>
</g>
<g style="fill:rgb(0%,0%,0%);fill-opacity:1;">
  <use xlink:href="#glyph2-6" x="87.286537" y="17.514"/>
  <use xlink:href="#glyph2-7" x="90.487159" y="17.514"/>
</g>
<g style="fill:rgb(0%,0%,0%);fill-opacity:1;">
  <use xlink:href="#glyph2-8" x="96.844407" y="17.514"/>
</g>
<g style="fill:rgb(0%,0%,0%);fill-opacity:1;">
  <use xlink:href="#glyph2-9" x="106.116311" y="17.514"/>
  <use xlink:href="#glyph2-10" x="112.693534" y="17.514"/>
</g>
<g style="fill:rgb(0%,0%,0%);fill-opacity:1;">
  <use xlink:href="#glyph2-11" x="120.821573" y="17.514"/>
  <use xlink:href="#glyph2-12" x="125.100067" y="17.514"/>
  <use xlink:href="#glyph2-4" x="130.753399" y="17.514"/>
  <use xlink:href="#glyph2-13" x="136.505719" y="17.514"/>
  <use xlink:href="#glyph2-5" x="141.961074" y="17.514"/>
</g>
<g style="fill:rgb(0%,0%,0%);fill-opacity:1;">
  <use xlink:href="#glyph2-6" x="145.733629" y="17.514"/>
</g>
<g style="fill:rgb(0%,0%,0%);fill-opacity:1;">
  <use xlink:href="#glyph2-7" x="148.945249" y="17.514"/>
  <use xlink:href="#glyph2-8" x="155.291499" y="17.514"/>
</g>
<g style="fill:rgb(0%,0%,0%);fill-opacity:1;">
  <use xlink:href="#glyph2-14" x="164.563403" y="17.514"/>
</g>
<path style="fill:none;stroke-width:0.398;stroke-linecap:butt;stroke-linejoin:miter;stroke:rgb(0%,0%,0%);stroke-opacity:1;stroke-miterlimit:10;" d="M 0.00078125 0.00015625 L 0.00078125 17.336094 " transform="matrix(1,0,0,-1,169.675,22.715)"/>
<g style="fill:rgb(0%,0%,0%);fill-opacity:1;">
  <use xlink:href="#glyph3-1" x="189.13" y="17.514"/>
</g>
<g style="fill:rgb(0%,0%,0%);fill-opacity:1;">
  <use xlink:href="#glyph3-2" x="196.752099" y="17.514"/>
</g>
<g style="fill:rgb(0%,0%,0%);fill-opacity:1;">
  <use xlink:href="#glyph4-1" x="225.106" y="17.514"/>
</g>
<g style="fill:rgb(0%,0%,0%);fill-opacity:1;">
  <use xlink:href="#glyph3-3" x="254.225" y="17.514"/>
</g>
<g style="fill:rgb(0%,0%,0%);fill-opacity:1;">
  <use xlink:href="#glyph3-4" x="260.967203" y="17.514"/>
</g>
<g style="fill:rgb(0%,0%,0%);fill-opacity:1;">
  <use xlink:href="#glyph4-2" x="290.243" y="17.514"/>
</g>
<g style="fill:rgb(0%,0%,0%);fill-opacity:1;">
  <use xlink:href="#glyph4-3" x="296.402272" y="17.514"/>
</g>
<g style="fill:rgb(0%,0%,0%);fill-opacity:1;">
  <use xlink:href="#glyph3-5" x="329.063" y="17.514"/>
</g>
<g style="fill:rgb(0%,0%,0%);fill-opacity:1;">
  <use xlink:href="#glyph3-6" x="334.419367" y="17.514"/>
</g>
<g style="fill:rgb(0%,0%,0%);fill-opacity:1;">
  <use xlink:href="#glyph4-1" x="364.627" y="17.514"/>
</g>
<g style="fill:rgb(0%,0%,0%);fill-opacity:1;">
  <use xlink:href="#glyph3-7" x="392.73" y="17.514"/>
</g>
<g style="fill:rgb(0%,0%,0%);fill-opacity:1;">
  <use xlink:href="#glyph3-8" x="400.297106" y="17.514"/>
</g>
<path style="fill:none;stroke-width:0.398;stroke-linecap:butt;stroke-linejoin:miter;stroke:rgb(0%,0%,0%);stroke-opacity:1;stroke-miterlimit:10;" d="M 0.00165625 0.00015625 L 0.00165625 17.336094 " transform="matrix(1,0,0,-1,427.971,22.715)"/>
<path style="fill:none;stroke-width:0.398;stroke-linecap:butt;stroke-linejoin:miter;stroke:rgb(0%,0%,0%);stroke-opacity:1;stroke-miterlimit:10;" d="M 0.00190625 -0.0000625 L 388.544875 -0.0000625 " transform="matrix(1,0,0,-1,39.627,22.914)"/>
<path style="fill:none;stroke-width:0.398;stroke-linecap:butt;stroke-linejoin:miter;stroke:rgb(0%,0%,0%);stroke-opacity:1;stroke-miterlimit:10;" d="M 0.001125 0.00015625 L 0.001125 46.226719 " transform="matrix(1,0,0,-1,39.827,69.34)"/>
<g style="fill:rgb(0%,0%,0%);fill-opacity:1;">
  <use xlink:href="#glyph0-1" x="42.018" y="35.247"/>
</g>
<g style="fill:rgb(0%,0%,0%);fill-opacity:1;">
  <use xlink:href="#glyph1-2" x="48.331" y="37.041"/>
</g>
<path style="fill:none;stroke-width:0.398;stroke-linecap:butt;stroke-linejoin:miter;stroke:rgb(0%,0%,0%);stroke-opacity:1;stroke-miterlimit:10;" d="M -0.00146875 0.00015625 L -0.00146875 46.226719 " transform="matrix(1,0,0,-1,55.396,69.34)"/>
<g style="fill:rgb(0%,0%,0%);fill-opacity:1;">
  <use xlink:href="#glyph2-1" x="64.467" y="35.247"/>
</g>
<g style="fill:rgb(0%,0%,0%);fill-opacity:1;">
  <use xlink:href="#glyph2-5" x="70.934236" y="35.247"/>
  <use xlink:href="#glyph2-4" x="74.717788" y="35.247"/>
</g>
<g style="fill:rgb(0%,0%,0%);fill-opacity:1;">
  <use xlink:href="#glyph2-5" x="80.45911" y="35.247"/>
</g>
<g style="fill:rgb(0%,0%,0%);fill-opacity:1;">
  <use xlink:href="#glyph2-9" x="86.71737" y="35.247"/>
  <use xlink:href="#glyph2-3" x="93.294593" y="35.247"/>
</g>
<g style="fill:rgb(0%,0%,0%);fill-opacity:1;">
  <use xlink:href="#glyph2-15" x="62.016" y="49.693"/>
  <use xlink:href="#glyph2-16" x="66.811433" y="49.693"/>
  <use xlink:href="#glyph2-15" x="72.376775" y="49.693"/>
  <use xlink:href="#glyph2-5" x="77.172209" y="49.693"/>
  <use xlink:href="#glyph2-17" x="80.955761" y="49.693"/>
  <use xlink:href="#glyph2-18" x="86.609093" y="49.693"/>
  <use xlink:href="#glyph2-10" x="96.760893" y="49.693"/>
</g>
<path style="fill:none;stroke-width:0.398;stroke-linecap:butt;stroke-linejoin:miter;stroke:rgb(0%,0%,0%);stroke-opacity:1;stroke-miterlimit:10;" d="M -0.00175 0.00015625 L -0.00175 46.226719 " transform="matrix(1,0,0,-1,109.033,69.34)"/>
<g style="fill:rgb(0%,0%,0%);fill-opacity:1;">
  <use xlink:href="#glyph2-19" x="118.792" y="35.247"/>
</g>
<g style="fill:rgb(0%,0%,0%);fill-opacity:1;">
  <use xlink:href="#glyph2-20" x="125.116253" y="35.247"/>
</g>
<g style="fill:rgb(0%,0%,0%);fill-opacity:1;">
  <use xlink:href="#glyph2-4" x="130.593605" y="35.247"/>
  <use xlink:href="#glyph2-8" x="136.345925" y="35.247"/>
</g>
<g style="fill:rgb(0%,0%,0%);fill-opacity:1;">
  <use xlink:href="#glyph2-13" x="143.143122" y="35.247"/>
  <use xlink:href="#glyph2-21" x="148.598477" y="35.247"/>
</g>
<g style="fill:rgb(0%,0%,0%);fill-opacity:1;">
  <use xlink:href="#glyph2-10" x="112.479" y="49.693"/>
  <use xlink:href="#glyph2-18" x="118.132332" y="49.693"/>
  <use xlink:href="#glyph2-10" x="128.284132" y="49.693"/>
  <use xlink:href="#glyph2-8" x="133.937464" y="49.693"/>
  <use xlink:href="#glyph2-5" x="140.745659" y="49.693"/>
</g>
<g style="fill:rgb(0%,0%,0%);fill-opacity:1;">
  <use xlink:href="#glyph2-9" x="146.992921" y="49.693"/>
  <use xlink:href="#glyph2-10" x="153.570143" y="49.693"/>
</g>
<g style="fill:rgb(0%,0%,0%);fill-opacity:1;">
  <use xlink:href="#glyph2-11" x="115.217" y="64.139"/>
  <use xlink:href="#glyph2-12" x="119.495494" y="64.139"/>
  <use xlink:href="#glyph2-4" x="125.148826" y="64.139"/>
  <use xlink:href="#glyph2-13" x="130.901146" y="64.139"/>
  <use xlink:href="#glyph2-5" x="136.356501" y="64.139"/>
</g>
<g style="fill:rgb(0%,0%,0%);fill-opacity:1;">
  <use xlink:href="#glyph2-6" x="140.129056" y="64.139"/>
</g>
<g style="fill:rgb(0%,0%,0%);fill-opacity:1;">
  <use xlink:href="#glyph2-7" x="143.340676" y="64.139"/>
  <use xlink:href="#glyph2-8" x="149.686926" y="64.139"/>
</g>
<path style="fill:none;stroke-width:0.398;stroke-linecap:butt;stroke-linejoin:miter;stroke:rgb(0%,0%,0%);stroke-opacity:1;stroke-miterlimit:10;" d="M 0.00078125 0.00015625 L 0.00078125 46.226719 " transform="matrix(1,0,0,-1,169.675,69.34)"/>
<g style="fill:rgb(0%,0%,0%);fill-opacity:1;">
  <use xlink:href="#glyph3-9" x="184.856" y="35.247"/>
</g>
<g style="fill:rgb(0%,0%,0%);fill-opacity:1;">
  <use xlink:href="#glyph2-22" x="192.256" y="35.247"/>
</g>
<g style="fill:rgb(0%,0%,0%);fill-opacity:1;">
  <use xlink:href="#glyph3-2" x="196.942" y="35.247"/>
</g>
<g style="fill:rgb(0%,0%,0%);fill-opacity:1;">
  <use xlink:href="#glyph2-23" x="204.283" y="35.247"/>
</g>
<g style="fill:rgb(0%,0%,0%);fill-opacity:1;">
  <use xlink:href="#glyph2-22" x="182.859" y="49.693"/>
  <use xlink:href="#glyph2-18" x="186.708545" y="49.693"/>
  <use xlink:href="#glyph2-7" x="196.860345" y="49.693"/>
  <use xlink:href="#glyph2-24" x="203.206595" y="49.693"/>
  <use xlink:href="#glyph2-23" x="206.275232" y="49.693"/>
</g>
<path style="fill:none;stroke-width:0.398;stroke-linecap:butt;stroke-linejoin:miter;stroke:rgb(0%,0%,0%);stroke-opacity:1;stroke-miterlimit:10;" d="M -0.0005 0.00015625 L -0.0005 46.226719 " transform="matrix(1,0,0,-1,229.063,69.34)"/>
<g style="fill:rgb(0%,0%,0%);fill-opacity:1;">
  <use xlink:href="#glyph3-9" x="250.047" y="35.247"/>
</g>
<g style="fill:rgb(0%,0%,0%);fill-opacity:1;">
  <use xlink:href="#glyph2-22" x="257.447" y="35.247"/>
</g>
<g style="fill:rgb(0%,0%,0%);fill-opacity:1;">
  <use xlink:href="#glyph3-4" x="261.297" y="35.247"/>
</g>
<g style="fill:rgb(0%,0%,0%);fill-opacity:1;">
  <use xlink:href="#glyph2-23" x="269.367" y="35.247"/>
</g>
<g style="fill:rgb(0%,0%,0%);fill-opacity:1;">
  <use xlink:href="#glyph2-22" x="247.997" y="49.693"/>
  <use xlink:href="#glyph2-18" x="251.846545" y="49.693"/>
  <use xlink:href="#glyph2-7" x="261.998345" y="49.693"/>
  <use xlink:href="#glyph2-24" x="268.344595" y="49.693"/>
  <use xlink:href="#glyph2-23" x="271.413232" y="49.693"/>
</g>
<path style="fill:none;stroke-width:0.398;stroke-linecap:butt;stroke-linejoin:miter;stroke:rgb(0%,0%,0%);stroke-opacity:1;stroke-miterlimit:10;" d="M 0.00121875 0.00015625 L 0.00121875 46.226719 " transform="matrix(1,0,0,-1,298.823,69.34)"/>
<g style="fill:rgb(0%,0%,0%);fill-opacity:1;">
  <use xlink:href="#glyph3-9" x="324.371" y="35.247"/>
</g>
<g style="fill:rgb(0%,0%,0%);fill-opacity:1;">
  <use xlink:href="#glyph2-22" x="331.771" y="35.247"/>
</g>
<g style="fill:rgb(0%,0%,0%);fill-opacity:1;">
  <use xlink:href="#glyph3-6" x="335.262" y="35.247"/>
</g>
<g style="fill:rgb(0%,0%,0%);fill-opacity:1;">
  <use xlink:href="#glyph2-23" x="343.81" y="35.247"/>
</g>
<g style="fill:rgb(0%,0%,0%);fill-opacity:1;">
  <use xlink:href="#glyph2-22" x="322.38" y="49.693"/>
  <use xlink:href="#glyph2-18" x="326.229545" y="49.693"/>
  <use xlink:href="#glyph2-7" x="336.381345" y="49.693"/>
  <use xlink:href="#glyph2-24" x="342.727595" y="49.693"/>
  <use xlink:href="#glyph2-23" x="345.796232" y="49.693"/>
</g>
<path style="fill:none;stroke-width:0.398;stroke-linecap:butt;stroke-linejoin:miter;stroke:rgb(0%,0%,0%);stroke-opacity:1;stroke-miterlimit:10;" d="M 0.0019375 0.00015625 L 0.0019375 46.226719 " transform="matrix(1,0,0,-1,368.584,69.34)"/>
<g style="fill:rgb(0%,0%,0%);fill-opacity:1;">
  <use xlink:href="#glyph3-9" x="388.964" y="35.247"/>
</g>
<g style="fill:rgb(0%,0%,0%);fill-opacity:1;">
  <use xlink:href="#glyph2-22" x="396.365" y="35.247"/>
</g>
<g style="fill:rgb(0%,0%,0%);fill-opacity:1;">
  <use xlink:href="#glyph3-8" x="400.214" y="35.247"/>
</g>
<g style="fill:rgb(0%,0%,0%);fill-opacity:1;">
  <use xlink:href="#glyph2-23" x="409.491" y="35.247"/>
</g>
<g style="fill:rgb(0%,0%,0%);fill-opacity:1;">
  <use xlink:href="#glyph2-22" x="387.518" y="49.693"/>
  <use xlink:href="#glyph2-18" x="391.367545" y="49.693"/>
  <use xlink:href="#glyph2-7" x="401.519345" y="49.693"/>
  <use xlink:href="#glyph2-24" x="407.865595" y="49.693"/>
  <use xlink:href="#glyph2-23" x="410.934232" y="49.693"/>
</g>
<path style="fill:none;stroke-width:0.398;stroke-linecap:butt;stroke-linejoin:miter;stroke:rgb(0%,0%,0%);stroke-opacity:1;stroke-miterlimit:10;" d="M 0.00165625 0.00015625 L 0.00165625 46.226719 " transform="matrix(1,0,0,-1,427.971,69.34)"/>
<path style="fill:none;stroke-width:0.398;stroke-linecap:butt;stroke-linejoin:miter;stroke:rgb(0%,0%,0%);stroke-opacity:1;stroke-miterlimit:10;" d="M 0.00190625 -0.0000625 L 388.544875 -0.0000625 " transform="matrix(1,0,0,-1,39.627,69.539)"/>
<path style="fill:none;stroke-width:0.398;stroke-linecap:butt;stroke-linejoin:miter;stroke:rgb(0%,0%,0%);stroke-opacity:1;stroke-miterlimit:10;" d="M 0.001125 -0.00053125 L 0.001125 31.780719 " transform="matrix(1,0,0,-1,39.827,101.519)"/>
<g style="fill:rgb(0%,0%,0%);fill-opacity:1;">
  <use xlink:href="#glyph0-1" x="42.018" y="81.873"/>
</g>
<g style="fill:rgb(0%,0%,0%);fill-opacity:1;">
  <use xlink:href="#glyph1-3" x="48.331" y="83.666"/>
</g>
<path style="fill:none;stroke-width:0.398;stroke-linecap:butt;stroke-linejoin:miter;stroke:rgb(0%,0%,0%);stroke-opacity:1;stroke-miterlimit:10;" d="M -0.00146875 -0.00053125 L -0.00146875 31.780719 " transform="matrix(1,0,0,-1,55.396,101.519)"/>
<g style="fill:rgb(0%,0%,0%);fill-opacity:1;">
  <use xlink:href="#glyph2-1" x="72.328" y="81.873"/>
</g>
<g style="fill:rgb(0%,0%,0%);fill-opacity:1;">
  <use xlink:href="#glyph2-5" x="78.795236" y="81.873"/>
</g>
<g style="fill:rgb(0%,0%,0%);fill-opacity:1;">
  <use xlink:href="#glyph2-4" x="82.56779" y="81.873"/>
  <use xlink:href="#glyph2-5" x="88.32011" y="81.873"/>
</g>
<g style="fill:rgb(0%,0%,0%);fill-opacity:1;">
  <use xlink:href="#glyph2-6" x="67.707" y="96.318"/>
  <use xlink:href="#glyph2-8" x="70.907622" y="96.318"/>
  <use xlink:href="#glyph2-6" x="77.715817" y="96.318"/>
  <use xlink:href="#glyph2-5" x="80.916439" y="96.318"/>
  <use xlink:href="#glyph2-6" x="84.699991" y="96.318"/>
  <use xlink:href="#glyph2-4" x="87.900613" y="96.318"/>
  <use xlink:href="#glyph2-24" x="93.652933" y="96.318"/>
</g>
<path style="fill:none;stroke-width:0.398;stroke-linecap:butt;stroke-linejoin:miter;stroke:rgb(0%,0%,0%);stroke-opacity:1;stroke-miterlimit:10;" d="M -0.00175 -0.00053125 L -0.00175 31.780719 " transform="matrix(1,0,0,-1,109.033,101.519)"/>
<g style="fill:rgb(0%,0%,0%);fill-opacity:1;">
  <use xlink:href="#glyph3-10" x="123.829" y="81.873"/>
</g>
<g style="fill:rgb(0%,0%,0%);fill-opacity:1;">
  <use xlink:href="#glyph4-4" x="132.319" y="81.873"/>
</g>
<g style="fill:rgb(0%,0%,0%);fill-opacity:1;">
  <use xlink:href="#glyph2-25" x="142.279" y="81.873"/>
</g>
<path style="fill:none;stroke-width:0.398;stroke-linecap:butt;stroke-linejoin:miter;stroke:rgb(0%,0%,0%);stroke-opacity:1;stroke-miterlimit:10;" d="M 0.00078125 -0.00053125 L 0.00078125 31.780719 " transform="matrix(1,0,0,-1,169.675,101.519)"/>
<g style="fill:rgb(0%,0%,0%);fill-opacity:1;">
  <use xlink:href="#glyph3-9" x="182.804" y="81.873"/>
</g>
<g style="fill:rgb(0%,0%,0%);fill-opacity:1;">
  <use xlink:href="#glyph2-22" x="190.205" y="81.873"/>
</g>
<g style="fill:rgb(0%,0%,0%);fill-opacity:1;">
  <use xlink:href="#glyph3-2" x="194.891" y="81.873"/>
</g>
<g style="fill:rgb(0%,0%,0%);fill-opacity:1;">
  <use xlink:href="#glyph2-23" x="202.231" y="81.873"/>
</g>
<g style="fill:rgb(0%,0%,0%);fill-opacity:1;">
  <use xlink:href="#glyph5-1" x="206.081" y="83.666"/>
</g>
<path style="fill:none;stroke-width:0.398;stroke-linecap:butt;stroke-linejoin:miter;stroke:rgb(0%,0%,0%);stroke-opacity:1;stroke-miterlimit:10;" d="M -0.0005 -0.00053125 L -0.0005 31.780719 " transform="matrix(1,0,0,-1,229.063,101.519)"/>
<g style="fill:rgb(0%,0%,0%);fill-opacity:1;">
  <use xlink:href="#glyph3-9" x="247.996" y="81.873"/>
</g>
<g style="fill:rgb(0%,0%,0%);fill-opacity:1;">
  <use xlink:href="#glyph2-22" x="255.396" y="81.873"/>
</g>
<g style="fill:rgb(0%,0%,0%);fill-opacity:1;">
  <use xlink:href="#glyph3-4" x="259.246" y="81.873"/>
</g>
<g style="fill:rgb(0%,0%,0%);fill-opacity:1;">
  <use xlink:href="#glyph2-23" x="267.315" y="81.873"/>
</g>
<g style="fill:rgb(0%,0%,0%);fill-opacity:1;">
  <use xlink:href="#glyph5-1" x="271.165" y="83.666"/>
</g>
<path style="fill:none;stroke-width:0.398;stroke-linecap:butt;stroke-linejoin:miter;stroke:rgb(0%,0%,0%);stroke-opacity:1;stroke-miterlimit:10;" d="M 0.00121875 -0.00053125 L 0.00121875 31.780719 " transform="matrix(1,0,0,-1,298.823,101.519)"/>
<g style="fill:rgb(0%,0%,0%);fill-opacity:1;">
  <use xlink:href="#glyph3-9" x="322.319" y="81.873"/>
</g>
<g style="fill:rgb(0%,0%,0%);fill-opacity:1;">
  <use xlink:href="#glyph2-22" x="329.719" y="81.873"/>
</g>
<g style="fill:rgb(0%,0%,0%);fill-opacity:1;">
  <use xlink:href="#glyph3-6" x="333.21" y="81.873"/>
</g>
<g style="fill:rgb(0%,0%,0%);fill-opacity:1;">
  <use xlink:href="#glyph2-23" x="341.758" y="81.873"/>
</g>
<g style="fill:rgb(0%,0%,0%);fill-opacity:1;">
  <use xlink:href="#glyph5-1" x="345.608" y="83.666"/>
</g>
<path style="fill:none;stroke-width:0.398;stroke-linecap:butt;stroke-linejoin:miter;stroke:rgb(0%,0%,0%);stroke-opacity:1;stroke-miterlimit:10;" d="M 0.0019375 -0.00053125 L 0.0019375 31.780719 " transform="matrix(1,0,0,-1,368.584,101.519)"/>
<g style="fill:rgb(0%,0%,0%);fill-opacity:1;">
  <use xlink:href="#glyph3-9" x="386.913" y="81.873"/>
</g>
<g style="fill:rgb(0%,0%,0%);fill-opacity:1;">
  <use xlink:href="#glyph2-22" x="394.313" y="81.873"/>
</g>
<g style="fill:rgb(0%,0%,0%);fill-opacity:1;">
  <use xlink:href="#glyph3-8" x="398.163" y="81.873"/>
</g>
<g style="fill:rgb(0%,0%,0%);fill-opacity:1;">
  <use xlink:href="#glyph2-23" x="407.44" y="81.873"/>
</g>
<g style="fill:rgb(0%,0%,0%);fill-opacity:1;">
  <use xlink:href="#glyph5-1" x="411.29" y="83.666"/>
</g>
<path style="fill:none;stroke-width:0.398;stroke-linecap:butt;stroke-linejoin:miter;stroke:rgb(0%,0%,0%);stroke-opacity:1;stroke-miterlimit:10;" d="M 0.00165625 -0.00053125 L 0.00165625 31.780719 " transform="matrix(1,0,0,-1,427.971,101.519)"/>
<path style="fill:none;stroke-width:0.398;stroke-linecap:butt;stroke-linejoin:miter;stroke:rgb(0%,0%,0%);stroke-opacity:1;stroke-miterlimit:10;" d="M 0.00190625 -0.00075 L 388.544875 -0.00075 " transform="matrix(1,0,0,-1,39.627,101.718)"/>
<path style="fill:none;stroke-width:0.398;stroke-linecap:butt;stroke-linejoin:miter;stroke:rgb(0%,0%,0%);stroke-opacity:1;stroke-miterlimit:10;" d="M 0.001125 -0.00053125 L 0.001125 46.226031 " transform="matrix(1,0,0,-1,39.827,148.144)"/>
<g style="fill:rgb(0%,0%,0%);fill-opacity:1;">
  <use xlink:href="#glyph0-1" x="42.018" y="114.052"/>
</g>
<g style="fill:rgb(0%,0%,0%);fill-opacity:1;">
  <use xlink:href="#glyph1-4" x="48.331" y="115.845"/>
</g>
<path style="fill:none;stroke-width:0.398;stroke-linecap:butt;stroke-linejoin:miter;stroke:rgb(0%,0%,0%);stroke-opacity:1;stroke-miterlimit:10;" d="M -0.00146875 -0.00053125 L -0.00146875 46.226031 " transform="matrix(1,0,0,-1,55.396,148.144)"/>
<g style="fill:rgb(0%,0%,0%);fill-opacity:1;">
  <use xlink:href="#glyph2-1" x="72.328" y="114.052"/>
</g>
<g style="fill:rgb(0%,0%,0%);fill-opacity:1;">
  <use xlink:href="#glyph2-5" x="78.795236" y="114.052"/>
</g>
<g style="fill:rgb(0%,0%,0%);fill-opacity:1;">
  <use xlink:href="#glyph2-4" x="82.56779" y="114.052"/>
  <use xlink:href="#glyph2-5" x="88.32011" y="114.052"/>
</g>
<g style="fill:rgb(0%,0%,0%);fill-opacity:1;">
  <use xlink:href="#glyph2-6" x="60.253" y="128.498"/>
  <use xlink:href="#glyph2-8" x="63.453622" y="128.498"/>
  <use xlink:href="#glyph2-5" x="70.261817" y="128.498"/>
</g>
<g style="fill:rgb(0%,0%,0%);fill-opacity:1;">
  <use xlink:href="#glyph2-10" x="74.034371" y="128.498"/>
  <use xlink:href="#glyph2-11" x="79.687703" y="128.498"/>
</g>
<g style="fill:rgb(0%,0%,0%);fill-opacity:1;">
  <use xlink:href="#glyph2-18" x="84.054187" y="128.498"/>
  <use xlink:href="#glyph2-12" x="94.205987" y="128.498"/>
  <use xlink:href="#glyph2-21" x="99.859319" y="128.498"/>
</g>
<g style="fill:rgb(0%,0%,0%);fill-opacity:1;">
  <use xlink:href="#glyph2-9" x="67.988" y="142.943"/>
  <use xlink:href="#glyph2-6" x="74.565223" y="142.943"/>
  <use xlink:href="#glyph2-4" x="77.765844" y="142.943"/>
  <use xlink:href="#glyph2-6" x="83.518164" y="142.943"/>
  <use xlink:href="#glyph2-11" x="86.718786" y="142.943"/>
</g>
<g style="fill:rgb(0%,0%,0%);fill-opacity:1;">
  <use xlink:href="#glyph2-10" x="90.788305" y="142.943"/>
</g>
<path style="fill:none;stroke-width:0.398;stroke-linecap:butt;stroke-linejoin:miter;stroke:rgb(0%,0%,0%);stroke-opacity:1;stroke-miterlimit:10;" d="M -0.00175 -0.00053125 L -0.00175 46.226031 " transform="matrix(1,0,0,-1,109.033,148.144)"/>
<g style="fill:rgb(0%,0%,0%);fill-opacity:1;">
  <use xlink:href="#glyph3-10" x="132.749" y="114.052"/>
</g>
<path style="fill:none;stroke-width:0.398;stroke-linecap:butt;stroke-linejoin:miter;stroke:rgb(0%,0%,0%);stroke-opacity:1;stroke-miterlimit:10;" d="M 0.00078125 -0.00053125 L 0.00078125 46.226031 " transform="matrix(1,0,0,-1,169.675,148.144)"/>
<g style="fill:rgb(0%,0%,0%);fill-opacity:1;">
  <use xlink:href="#glyph3-9" x="171.867" y="114.052"/>
</g>
<g style="fill:rgb(0%,0%,0%);fill-opacity:1;">
  <use xlink:href="#glyph2-22" x="179.267" y="114.052"/>
</g>
<g style="fill:rgb(0%,0%,0%);fill-opacity:1;">
  <use xlink:href="#glyph3-2" x="183.954" y="114.052"/>
</g>
<g style="fill:rgb(0%,0%,0%);fill-opacity:1;">
  <use xlink:href="#glyph2-23" x="191.294" y="114.052"/>
</g>
<g style="fill:rgb(0%,0%,0%);fill-opacity:1;">
  <use xlink:href="#glyph5-1" x="195.144" y="115.845"/>
</g>
<g style="fill:rgb(0%,0%,0%);fill-opacity:1;">
  <use xlink:href="#glyph4-2" x="199.37" y="114.052"/>
</g>
<g style="fill:rgb(0%,0%,0%);fill-opacity:1;">
  <use xlink:href="#glyph3-1" x="207.647" y="114.052"/>
</g>
<g style="fill:rgb(0%,0%,0%);fill-opacity:1;">
  <use xlink:href="#glyph3-10" x="214.675169" y="114.052"/>
</g>
<path style="fill:none;stroke-width:0.398;stroke-linecap:butt;stroke-linejoin:miter;stroke:rgb(0%,0%,0%);stroke-opacity:1;stroke-miterlimit:10;" d="M -0.0005 -0.00053125 L -0.0005 46.226031 " transform="matrix(1,0,0,-1,229.063,148.144)"/>
<g style="fill:rgb(0%,0%,0%);fill-opacity:1;">
  <use xlink:href="#glyph3-9" x="237.005" y="114.052"/>
</g>
<g style="fill:rgb(0%,0%,0%);fill-opacity:1;">
  <use xlink:href="#glyph2-22" x="244.405" y="114.052"/>
</g>
<g style="fill:rgb(0%,0%,0%);fill-opacity:1;">
  <use xlink:href="#glyph3-4" x="248.255" y="114.052"/>
</g>
<g style="fill:rgb(0%,0%,0%);fill-opacity:1;">
  <use xlink:href="#glyph2-23" x="256.325" y="114.052"/>
</g>
<g style="fill:rgb(0%,0%,0%);fill-opacity:1;">
  <use xlink:href="#glyph5-1" x="260.174" y="115.845"/>
</g>
<g style="fill:rgb(0%,0%,0%);fill-opacity:1;">
  <use xlink:href="#glyph4-2" x="264.598" y="114.052"/>
</g>
<g style="fill:rgb(0%,0%,0%);fill-opacity:1;">
  <use xlink:href="#glyph3-3" x="272.833" y="114.052"/>
</g>
<g style="fill:rgb(0%,0%,0%);fill-opacity:1;">
  <use xlink:href="#glyph3-10" x="279.817175" y="114.052"/>
</g>
<path style="fill:none;stroke-width:0.398;stroke-linecap:butt;stroke-linejoin:miter;stroke:rgb(0%,0%,0%);stroke-opacity:1;stroke-miterlimit:10;" d="M 0.00121875 -0.00053125 L 0.00121875 46.226031 " transform="matrix(1,0,0,-1,298.823,148.144)"/>
<g style="fill:rgb(0%,0%,0%);fill-opacity:1;">
  <use xlink:href="#glyph3-9" x="311.388" y="114.052"/>
</g>
<g style="fill:rgb(0%,0%,0%);fill-opacity:1;">
  <use xlink:href="#glyph2-22" x="318.788" y="114.052"/>
</g>
<g style="fill:rgb(0%,0%,0%);fill-opacity:1;">
  <use xlink:href="#glyph3-6" x="322.279" y="114.052"/>
</g>
<g style="fill:rgb(0%,0%,0%);fill-opacity:1;">
  <use xlink:href="#glyph2-23" x="330.827" y="114.052"/>
</g>
<g style="fill:rgb(0%,0%,0%);fill-opacity:1;">
  <use xlink:href="#glyph5-1" x="334.677" y="115.845"/>
</g>
<g style="fill:rgb(0%,0%,0%);fill-opacity:1;">
  <use xlink:href="#glyph4-1" x="339.554" y="114.052"/>
</g>
<g style="fill:rgb(0%,0%,0%);fill-opacity:1;">
  <use xlink:href="#glyph3-5" x="348.244" y="114.052"/>
</g>
<g style="fill:rgb(0%,0%,0%);fill-opacity:1;">
  <use xlink:href="#glyph3-10" x="354.194297" y="114.052"/>
</g>
<path style="fill:none;stroke-width:0.398;stroke-linecap:butt;stroke-linejoin:miter;stroke:rgb(0%,0%,0%);stroke-opacity:1;stroke-miterlimit:10;" d="M 0.0019375 -0.00053125 L 0.0019375 46.226031 " transform="matrix(1,0,0,-1,368.584,148.144)"/>
<g style="fill:rgb(0%,0%,0%);fill-opacity:1;">
  <use xlink:href="#glyph3-9" x="382.225" y="114.052"/>
</g>
<g style="fill:rgb(0%,0%,0%);fill-opacity:1;">
  <use xlink:href="#glyph2-22" x="389.626" y="114.052"/>
</g>
<g style="fill:rgb(0%,0%,0%);fill-opacity:1;">
  <use xlink:href="#glyph3-8" x="393.475" y="114.052"/>
</g>
<g style="fill:rgb(0%,0%,0%);fill-opacity:1;">
  <use xlink:href="#glyph2-23" x="402.752" y="114.052"/>
</g>
<g style="fill:rgb(0%,0%,0%);fill-opacity:1;">
  <use xlink:href="#glyph5-1" x="406.602" y="115.845"/>
</g>
<g style="fill:rgb(0%,0%,0%);fill-opacity:1;">
  <use xlink:href="#glyph4-1" x="412.166" y="114.052"/>
</g>
<g style="fill:rgb(0%,0%,0%);fill-opacity:1;">
  <use xlink:href="#glyph3-7" x="394.027" y="128.498"/>
</g>
<g style="fill:rgb(0%,0%,0%);fill-opacity:1;">
  <use xlink:href="#glyph3-10" x="401.836077" y="128.498"/>
</g>
<path style="fill:none;stroke-width:0.398;stroke-linecap:butt;stroke-linejoin:miter;stroke:rgb(0%,0%,0%);stroke-opacity:1;stroke-miterlimit:10;" d="M 0.00165625 -0.00053125 L 0.00165625 46.226031 " transform="matrix(1,0,0,-1,427.971,148.144)"/>
<path style="fill:none;stroke-width:0.398;stroke-linecap:butt;stroke-linejoin:miter;stroke:rgb(0%,0%,0%);stroke-opacity:1;stroke-miterlimit:10;" d="M 0.00190625 -0.00075 L 388.544875 -0.00075 " transform="matrix(1,0,0,-1,39.627,148.343)"/>
<path style="fill:none;stroke-width:0.398;stroke-linecap:butt;stroke-linejoin:miter;stroke:rgb(0%,0%,0%);stroke-opacity:1;stroke-miterlimit:10;" d="M 0.001125 -0.00121875 L 0.001125 31.780031 " transform="matrix(1,0,0,-1,39.827,180.323)"/>
<g style="fill:rgb(0%,0%,0%);fill-opacity:1;">
  <use xlink:href="#glyph0-1" x="42.018" y="160.677"/>
</g>
<g style="fill:rgb(0%,0%,0%);fill-opacity:1;">
  <use xlink:href="#glyph1-5" x="48.331" y="162.47"/>
</g>
<path style="fill:none;stroke-width:0.398;stroke-linecap:butt;stroke-linejoin:miter;stroke:rgb(0%,0%,0%);stroke-opacity:1;stroke-miterlimit:10;" d="M -0.00146875 -0.00121875 L -0.00146875 31.780031 " transform="matrix(1,0,0,-1,55.396,180.323)"/>
<g style="fill:rgb(0%,0%,0%);fill-opacity:1;">
  <use xlink:href="#glyph2-1" x="59.924" y="160.677"/>
</g>
<g style="fill:rgb(0%,0%,0%);fill-opacity:1;">
  <use xlink:href="#glyph2-5" x="66.391236" y="160.677"/>
  <use xlink:href="#glyph2-4" x="70.174788" y="160.677"/>
</g>
<g style="fill:rgb(0%,0%,0%);fill-opacity:1;">
  <use xlink:href="#glyph2-5" x="75.91611" y="160.677"/>
</g>
<g style="fill:rgb(0%,0%,0%);fill-opacity:1;">
  <use xlink:href="#glyph2-26" x="82.17437" y="160.677"/>
  <use xlink:href="#glyph2-8" x="88.883577" y="160.677"/>
</g>
<g style="fill:rgb(0%,0%,0%);fill-opacity:1;">
  <use xlink:href="#glyph2-4" x="95.680774" y="160.677"/>
  <use xlink:href="#glyph2-24" x="101.433094" y="160.677"/>
</g>
<path style="fill:none;stroke-width:0.398;stroke-linecap:butt;stroke-linejoin:miter;stroke:rgb(0%,0%,0%);stroke-opacity:1;stroke-miterlimit:10;" d="M -0.00175 -0.00121875 L -0.00175 31.780031 " transform="matrix(1,0,0,-1,109.033,180.323)"/>
<g style="fill:rgb(0%,0%,0%);fill-opacity:1;">
  <use xlink:href="#glyph3-10" x="124.488" y="160.677"/>
</g>
<g style="fill:rgb(0%,0%,0%);fill-opacity:1;">
  <use xlink:href="#glyph1-6" x="130.525" y="163.815"/>
  <use xlink:href="#glyph1-7" x="138.138919" y="163.815"/>
  <use xlink:href="#glyph1-8" x="142.453199" y="163.815"/>
</g>
<path style="fill:none;stroke-width:0.398;stroke-linecap:butt;stroke-linejoin:miter;stroke:rgb(0%,0%,0%);stroke-opacity:1;stroke-miterlimit:10;" d="M 0.00078125 -0.00121875 L 0.00078125 31.780031 " transform="matrix(1,0,0,-1,169.675,180.323)"/>
<g style="fill:rgb(0%,0%,0%);fill-opacity:1;">
  <use xlink:href="#glyph3-9" x="178.117" y="160.677"/>
</g>
<g style="fill:rgb(0%,0%,0%);fill-opacity:1;">
  <use xlink:href="#glyph2-22" x="185.517" y="160.677"/>
</g>
<g style="fill:rgb(0%,0%,0%);fill-opacity:1;">
  <use xlink:href="#glyph3-2" x="190.203" y="160.677"/>
</g>
<g style="fill:rgb(0%,0%,0%);fill-opacity:1;">
  <use xlink:href="#glyph2-23" x="197.544" y="160.677"/>
</g>
<g style="fill:rgb(0%,0%,0%);fill-opacity:1;">
  <use xlink:href="#glyph5-1" x="201.393" y="162.47"/>
</g>
<g style="fill:rgb(0%,0%,0%);fill-opacity:1;">
  <use xlink:href="#glyph4-2" x="206.957" y="160.677"/>
</g>
<g style="fill:rgb(0%,0%,0%);fill-opacity:1;">
  <use xlink:href="#glyph3-1" x="181.615" y="175.123"/>
</g>
<g style="fill:rgb(0%,0%,0%);fill-opacity:1;">
  <use xlink:href="#glyph3-10" x="188.643169" y="175.123"/>
</g>
<g style="fill:rgb(0%,0%,0%);fill-opacity:1;">
  <use xlink:href="#glyph1-6" x="194.682" y="178.261"/>
  <use xlink:href="#glyph1-7" x="202.295919" y="178.261"/>
  <use xlink:href="#glyph1-8" x="206.610199" y="178.261"/>
</g>
<path style="fill:none;stroke-width:0.398;stroke-linecap:butt;stroke-linejoin:miter;stroke:rgb(0%,0%,0%);stroke-opacity:1;stroke-miterlimit:10;" d="M -0.0005 -0.00121875 L -0.0005 31.780031 " transform="matrix(1,0,0,-1,229.063,180.323)"/>
<g style="fill:rgb(0%,0%,0%);fill-opacity:1;">
  <use xlink:href="#glyph3-9" x="243.308" y="160.677"/>
</g>
<g style="fill:rgb(0%,0%,0%);fill-opacity:1;">
  <use xlink:href="#glyph2-22" x="250.708" y="160.677"/>
</g>
<g style="fill:rgb(0%,0%,0%);fill-opacity:1;">
  <use xlink:href="#glyph3-4" x="254.558" y="160.677"/>
</g>
<g style="fill:rgb(0%,0%,0%);fill-opacity:1;">
  <use xlink:href="#glyph2-23" x="262.628" y="160.677"/>
</g>
<g style="fill:rgb(0%,0%,0%);fill-opacity:1;">
  <use xlink:href="#glyph5-1" x="266.477" y="162.47"/>
</g>
<g style="fill:rgb(0%,0%,0%);fill-opacity:1;">
  <use xlink:href="#glyph4-2" x="272.041" y="160.677"/>
</g>
<g style="fill:rgb(0%,0%,0%);fill-opacity:1;">
  <use xlink:href="#glyph3-3" x="246.657" y="175.123"/>
</g>
<g style="fill:rgb(0%,0%,0%);fill-opacity:1;">
  <use xlink:href="#glyph3-10" x="253.641175" y="175.123"/>
</g>
<g style="fill:rgb(0%,0%,0%);fill-opacity:1;">
  <use xlink:href="#glyph1-6" x="259.677" y="178.261"/>
  <use xlink:href="#glyph1-7" x="267.290919" y="178.261"/>
  <use xlink:href="#glyph1-8" x="271.605199" y="178.261"/>
</g>
<path style="fill:none;stroke-width:0.398;stroke-linecap:butt;stroke-linejoin:miter;stroke:rgb(0%,0%,0%);stroke-opacity:1;stroke-miterlimit:10;" d="M 0.00121875 -0.00121875 L 0.00121875 31.780031 " transform="matrix(1,0,0,-1,298.823,180.323)"/>
<g style="fill:rgb(0%,0%,0%);fill-opacity:1;">
  <use xlink:href="#glyph3-9" x="317.631" y="160.677"/>
</g>
<g style="fill:rgb(0%,0%,0%);fill-opacity:1;">
  <use xlink:href="#glyph2-22" x="325.032" y="160.677"/>
</g>
<g style="fill:rgb(0%,0%,0%);fill-opacity:1;">
  <use xlink:href="#glyph3-6" x="328.523" y="160.677"/>
</g>
<g style="fill:rgb(0%,0%,0%);fill-opacity:1;">
  <use xlink:href="#glyph2-23" x="337.071" y="160.677"/>
</g>
<g style="fill:rgb(0%,0%,0%);fill-opacity:1;">
  <use xlink:href="#glyph5-1" x="340.92" y="162.47"/>
</g>
<g style="fill:rgb(0%,0%,0%);fill-opacity:1;">
  <use xlink:href="#glyph4-1" x="346.484" y="160.677"/>
</g>
<g style="fill:rgb(0%,0%,0%);fill-opacity:1;">
  <use xlink:href="#glyph3-5" x="321.555" y="175.123"/>
</g>
<g style="fill:rgb(0%,0%,0%);fill-opacity:1;">
  <use xlink:href="#glyph3-10" x="327.505297" y="175.123"/>
</g>
<g style="fill:rgb(0%,0%,0%);fill-opacity:1;">
  <use xlink:href="#glyph1-6" x="333.546" y="178.261"/>
  <use xlink:href="#glyph1-7" x="341.159919" y="178.261"/>
  <use xlink:href="#glyph1-8" x="345.474199" y="178.261"/>
</g>
<path style="fill:none;stroke-width:0.398;stroke-linecap:butt;stroke-linejoin:miter;stroke:rgb(0%,0%,0%);stroke-opacity:1;stroke-miterlimit:10;" d="M 0.0019375 -0.00121875 L 0.0019375 31.780031 " transform="matrix(1,0,0,-1,368.584,180.323)"/>
<g style="fill:rgb(0%,0%,0%);fill-opacity:1;">
  <use xlink:href="#glyph3-9" x="382.225" y="160.677"/>
</g>
<g style="fill:rgb(0%,0%,0%);fill-opacity:1;">
  <use xlink:href="#glyph2-22" x="389.626" y="160.677"/>
</g>
<g style="fill:rgb(0%,0%,0%);fill-opacity:1;">
  <use xlink:href="#glyph3-8" x="393.475" y="160.677"/>
</g>
<g style="fill:rgb(0%,0%,0%);fill-opacity:1;">
  <use xlink:href="#glyph2-23" x="402.752" y="160.677"/>
</g>
<g style="fill:rgb(0%,0%,0%);fill-opacity:1;">
  <use xlink:href="#glyph5-1" x="406.602" y="162.47"/>
</g>
<g style="fill:rgb(0%,0%,0%);fill-opacity:1;">
  <use xlink:href="#glyph4-1" x="412.166" y="160.677"/>
</g>
<g style="fill:rgb(0%,0%,0%);fill-opacity:1;">
  <use xlink:href="#glyph3-7" x="385.766" y="175.123"/>
</g>
<g style="fill:rgb(0%,0%,0%);fill-opacity:1;">
  <use xlink:href="#glyph3-10" x="393.575077" y="175.123"/>
</g>
<g style="fill:rgb(0%,0%,0%);fill-opacity:1;">
  <use xlink:href="#glyph1-6" x="399.61" y="178.261"/>
  <use xlink:href="#glyph1-7" x="407.223919" y="178.261"/>
  <use xlink:href="#glyph1-8" x="411.538199" y="178.261"/>
</g>
<path style="fill:none;stroke-width:0.398;stroke-linecap:butt;stroke-linejoin:miter;stroke:rgb(0%,0%,0%);stroke-opacity:1;stroke-miterlimit:10;" d="M 0.00165625 -0.00121875 L 0.00165625 31.780031 " transform="matrix(1,0,0,-1,427.971,180.323)"/>
<path style="fill:none;stroke-width:0.398;stroke-linecap:butt;stroke-linejoin:miter;stroke:rgb(0%,0%,0%);stroke-opacity:1;stroke-miterlimit:10;" d="M 0.00190625 -0.0014375 L 388.544875 -0.0014375 " transform="matrix(1,0,0,-1,39.627,180.522)"/>
</g>
</svg>
